mpi_size: 6144
mpi_vendor: ('Open MPI', (4, 1, 0))
args: Namespace(command='val', corr='/home/users/gbankhamer/grant_396/project_data/gbankhamer/propagation-0.3/data/corr-covid.csv', discount='/home/users/gbankhamer/grant_396/project_data/gbankhamer/propagation-0.3/data/discount-covid.csv', epsilon=0.001, features=1, graph='/home/users/gbankhamer/grant_396/project_data/gbankhamer/propagation-0.3/data/anon_graph_outer_socialdistance_20201110.npz', indir='/home/users/gbankhamer/grant_396/project_data/gbankhamer/propagation-0.3/data', max_depth=None, max_nodes=None, metis_zero_based=False, outdir='outdata', params=None, runid='2021-11-15T03:25:26.050798', sample_split=1, samples=10000, seed=42, source_map=None, sources=5000, stats=None, topic='covid19_socialdistance_20201110', tweets='/home/users/gbankhamer/grant_396/project_data/gbankhamer/propagation-0.3/data/sim_features_covid19_socialdistance_20201110.csv')
Assuming METIS style ids.
readtime: 3.729280710220337
seed: 42
setuptime: 7.2596776485443115
217 features, 5000 sources, 10000 samples
