intel8268,16,lge,extract_car,europe/ukraine,0,20211312193732,1723903732850,2219596398451
intel8268,16,lge,contract_car,europe/ukraine,0,20211312194538,16969345908969,8717103523557
intel8268,1,lge,routing_car,europe/ukraine,0,20211312200414,2407734349157,9548070080717
intel8268,4,lge,routing_car,europe/ukraine,0,20211312202247,2495860121277,9548083210853
intel8268,8,lge,routing_car,europe/ukraine,0,20211312203436,2566236784733,9548099988181
intel8268,16,lge,routing_car,europe/ukraine,0,20211312204345,2808809210131,9548133932747
intel8268,24,lge,routing_car,europe/ukraine,0,20211312205137,3270520059072,9548168704528
intel8268,32,lge,routing_car,europe/ukraine,0,20211312205852,3878059323499,9548201531704
intel8268,48,lge,routing_car,europe/ukraine,0,20211312210547,5122089455477,9548353892749
intel8268,48,lge,routing_car,europe/ukraine,0,20211312211231,4948490749061,9548345414160
intel8268,1,lge,routing_car,europe/ukraine,0,20211312212747,2408634105128,9548070104020
intel8268,4,lge,routing_car,europe/ukraine,0,20211312214619,2515425906020,9548082949846
intel8268,8,lge,routing_car,europe/ukraine,0,20211312215807,2574938077498,9548099647658
intel8268,16,lge,routing_car,europe/ukraine,0,20211312221151,2779382559613,9548134501464
intel8268,24,lge,routing_car,europe/ukraine,0,20211312221938,3255771279624,9548190355139
intel8268,32,lge,routing_car,europe/ukraine,0,20211312222650,3901981086976,9548203598946
intel8268,48,lge,routing_car,europe/ukraine,0,20211312223344,5098985604627,9548356482141
intel8268,48,lge,routing_car,europe/ukraine,0,20211312224027,5248791043347,9548347139067
intel8268,1,lge,routing_car,europe/ukraine,0,20211312225540,2409989520296,9548070082295
intel8268,4,lge,routing_car,europe/ukraine,0,20211312231422,2514086815813,9548082930687
intel8268,8,lge,routing_car,europe/ukraine,0,20211312232614,2526763049062,9548099959431
intel8268,16,lge,extract_car,europe/ukraine,0,20211412113212,1744887153542,2224978927666
intel8268,16,lge,contract_car,europe/ukraine,0,20211412114005,16847802040063,8676049252936
intel8268,1,lge,routing_car,europe/ukraine,0,20211412115829,2404916600928,9538915255228
intel8268,4,lge,routing_car,europe/ukraine,0,20211412121712,2481440432162,9538928337598
intel8268,8,lge,routing_car,europe/ukraine,0,20211412122900,2532901557121,9538945495270
intel8268,16,lge,routing_car,europe/ukraine,0,20211412123818,2818014314352,9538979296249
intel8268,24,lge,routing_car,europe/ukraine,0,20211412124602,3178325802944,9539013887419
intel8268,32,lge,routing_car,europe/ukraine,0,20211412125318,3876137622974,9539047220585
intel8268,48,lge,routing_car,europe/ukraine,0,20211412130012,5021608514824,9539192766320
intel8268,48,lge,routing_car,europe/ukraine,0,20211412130653,5112060998737,9539201344813
intel8268,1,lge,routing_car,europe/ukraine,0,20211412132202,2398024523592,9538915486479
intel8268,4,lge,routing_car,europe/ukraine,0,20211412134030,2502267357087,9538928303674
intel8268,8,lge,routing_car,europe/ukraine,0,20211412135216,2550762371413,9538951979652
intel8268,16,lge,routing_car,europe/ukraine,0,20211412140132,2839697609962,9538979301878
intel8268,24,lge,routing_car,europe/ukraine,0,20211412140915,3295197402350,9539010104972
intel8268,32,lge,routing_car,europe/ukraine,0,20211412141630,3859934287770,9539098412241
intel8268,48,lge,routing_car,europe/ukraine,0,20211412142359,4946361744286,9539201375761
intel8268,48,lge,routing_car,europe/ukraine,0,20211412143057,5175567061958,9539200382793
intel8268,1,lge,routing_car,europe/ukraine,0,20211412144659,2398523836244,9538915452063
intel8268,4,lge,routing_car,europe/ukraine,0,20211412150555,2509359869113,9538928327196
intel8268,8,lge,routing_car,europe/ukraine,0,20211412151757,2547287188026,9538945372346
intel8268,48,lge,extract_car,europe/ukraine,0,20211512151456,2157535891300,2259586171922
intel8268,48,lge,contract_car,europe/ukraine,0,20211512152001,18090905040620,8724630281503
