mpi_size: 1536
mpi_vendor: ('MPICH', (3, 4, 2))
Assuming METIS style ids.
readtime: 1.4531800746917725
args: Namespace(runid='2021-09-06T08:48:13.112526', graph='../../propagation-master/data/anon_graph_outer_fpoe_20201110.npz', metis_zero_based=False, tweets='../../propagation-master/data/sim_features_fpoe_20201110.csv', stats=None, params=None, discounts=None, corrs=None, source_map=None, indir='../../propagation-master/data', outdir='outdata', features=1, sources=400, samples=1000, epsilon=0.001, max_depth=None, max_nodes=None, sample_split=1, seed=3, command='val', topic='fpoe_20201110')
seed: 3
topic: fpoe_20201110
setuptime: 18.71703052520752
132 features, 400 sources, 1000 samples
             mean_retweets             retweet_probability          
                      real         sim                real       sim
(0000, 0000)      2.244048    0.361610            0.285714  0.285080
(0000, 0001)      1.753846    0.451705            0.338462  0.338163
(0000, 0010)      4.030303    0.341967            0.272727  0.272838
(0000, 0011)      7.238095    0.751742            0.476190  0.475073
(0000, 0100)      0.773879    0.129630            0.118908  0.118320
(0000, 0110)      1.196203    0.382705            0.297468  0.297708
(0000, 1000)      2.501763    0.423330            0.321974  0.321232
(0000, 1001)      4.377273    0.563918            0.395455  0.396998
(0000, 1010)      1.600000    0.430185            0.325581  0.326105
(0000, 1011)      4.326531    0.733165            0.469388  0.468685
(0000, 1100)      0.917647    0.273115            0.227451  0.227480
(0000, 1101)      3.466667    1.154963            0.600000  0.601005
(0000, 1110)      0.816901    0.268373            0.225352  0.225013
(0001, 0000)      6.167155    0.607705            0.425220  0.425563
(0001, 0001)     12.505376    1.172227            0.623656  0.622835
(0001, 0010)      8.379310    0.514993            0.379310  0.378898
(0001, 0011)      7.862069    1.945273            0.758621  0.757950
(0001, 0100)      1.268935    0.253068            0.216246  0.215745
(0001, 0101)      5.967033    0.884158            0.538462  0.536732
(0001, 0110)      3.266055    0.601448            0.422018  0.422185
(0001, 0111)      4.636364    1.219243            0.636364  0.635730
(0001, 1000)      5.209115    0.719283            0.471850  0.473280
(0001, 1001)      7.167347    1.335993            0.661224  0.660745
(0001, 1010)      3.535519    0.703045            0.469945  0.469195
(0001, 1011)      6.676768    1.364560            0.666667  0.668045
(0001, 1100)      4.282443    0.755538            0.488550  0.488155
(0001, 1101)      6.291667    0.953007            0.558333  0.559820
(0001, 1110)      4.120000    0.837348            0.520000  0.519602
(0001, 1111)      3.470588    1.443823            0.686275  0.686640
(0010, 0000)      2.439294    0.305170            0.247241  0.248653
(0010, 0001)      4.290323    0.490483            0.354839  0.355343
(0010, 0010)      2.230769    0.474103            0.346154  0.346985
(0010, 0011)      1.714286    0.490922            0.357143  0.356502
(0010, 0100)      1.125418    0.252803            0.212375  0.212995
(0010, 0101)      0.588235    0.286290            0.235294  0.235343
(0010, 0110)      0.878136    0.216035            0.186380  0.185328
(0010, 1000)      1.795539    0.371922            0.289963  0.289500
(0010, 1001)      2.017751    0.414633            0.313609  0.314135
(0010, 1010)      1.921260    0.382495            0.295276  0.295590
(0010, 1011)      2.102564    0.953880            0.538462  0.539247
(0010, 1100)      1.355372    0.473302            0.347107  0.346852
(0010, 1101)      1.833333    0.829555            0.500000  0.498775
(0010, 1110)      1.025000    0.307955            0.250000  0.248942
(0011, 0000)      7.330709    0.587535            0.409449  0.410517
(0011, 0001)     11.951220    1.176040            0.609756  0.609067
(0011, 0010)     11.809524    1.198545            0.619048  0.618592
(0011, 0011)     13.571429    1.318215            0.642857  0.643147
(0011, 0100)      2.746753    0.602403            0.415584  0.415113
(0011, 0101)      1.270270    0.254915            0.216216  0.216810
(0011, 0110)      3.592593    1.421475            0.666667  0.666633
(0011, 1000)      3.523810    0.553737            0.395238  0.394390
(0011, 1001)      9.083333    1.352148            0.652778  0.653737
(0011, 1010)      1.514706    0.325388            0.264706  0.263718
(0011, 1011)      9.033333    0.900115            0.533333  0.534305
(0011, 1100)      2.131148    0.534950            0.387978  0.386425
(0011, 1101)     16.645161    0.939245            0.548387  0.547938
(0011, 1110)      3.516129    0.763835            0.483871  0.483402
(0011, 1111)      2.272727    2.863350            0.818182  0.818265
(0100, 0000)      1.681633    0.576730            0.408163  0.408347
(0100, 0001)      0.820000    0.317170            0.260000  0.259573
(0100, 0010)      2.956522    0.256655            0.217391  0.217258
(0100, 0100)      1.092593    0.238098            0.203704  0.203553
(0100, 0101)      5.333333    0.329480            0.266667  0.267320
(0100, 0110)      0.341270    0.209175            0.182540  0.182605
(0100, 1000)      2.506173    0.765535            0.488889  0.488643
(0100, 1001)     10.946667    0.591718            0.413333  0.413285
(0100, 1010)      0.857143    0.359283            0.285714  0.286105
(0100, 1011)      6.320000    0.749637            0.480000  0.480872
(0100, 1100)      2.019704    0.764920            0.487685  0.487173
(0100, 1101)      1.300000    0.231885            0.200000  0.200320
(0100, 1110)      1.600000    0.497250            0.366667  0.367015
(0101, 0000)      3.853801    0.626195            0.444444  0.442695
(0101, 0001)      5.025641    0.988838            0.589744  0.589630
(0101, 0010)     13.909091    1.011767            0.590909  0.591995
(0101, 0100)      1.149556    0.362885            0.294043  0.294312
(0101, 0101)      0.540000    0.228173            0.200000  0.200592
(0101, 0110)      0.607143    0.263525            0.226190  0.226350
(0101, 1000)      1.839806    0.615965            0.436893  0.439958
(0101, 1001)      1.928571    1.009550            0.595238  0.595322
(0101, 1010)      0.600000    0.260410            0.225000  0.224505
(0101, 1011)      2.375000    1.106115            0.625000  0.624868
(0101, 1100)      0.422449    0.106785            0.100000  0.100120
(0101, 1101)      0.678571    0.462700            0.357143  0.357320
(0101, 1110)      1.559140    0.233858            0.204301  0.203643
(0110, 0000)      1.888158    0.428602            0.322368  0.322060
(0110, 0001)      7.120482    1.649415            0.686747  0.686885
(0110, 0010)      1.448276    0.534767            0.379310  0.378247
(0110, 0011)      6.400000    2.120015            0.742857  0.742842
(0110, 0100)      0.805211    0.185635            0.163772  0.162915
(0110, 0101)      1.225806    0.554268            0.387097  0.388030
(0110, 0110)      1.335570    0.394382            0.302013  0.301680
(0110, 1000)      3.314516    0.685382            0.443548  0.442597
(0110, 1001)      2.409091    0.740540            0.463636  0.463353
(0110, 1010)      1.876923    0.850610            0.507692  0.507955
(0110, 1011)      7.833333    1.407985            0.645833  0.645108
(0110, 1100)      2.207207    0.635723            0.423423  0.423270
(0110, 1110)      1.052632    0.471680            0.342105  0.342963
(0111, 0000)      2.380000    0.517487            0.380000  0.380602
(0111, 0001)      2.400000    0.697110            0.466667  0.467355
(0111, 0100)      0.852941    0.094335            0.088235  0.088807
(0111, 0101)      0.049536    0.018312            0.018576  0.018115
(0111, 0110)      0.500000    0.088525            0.083333  0.083820
(0111, 0111)      0.000000    0.000000            0.000000  0.000000
(0111, 1000)      2.585366    0.635430            0.439024  0.437858
(0111, 1001)      1.000000    0.782862            0.500000  0.501358
(0111, 1100)      3.760000    0.411205            0.320000  0.320785
(0111, 1110)      0.904762    0.218440            0.190476  0.190262
(1000, 1000)     20.214286    2.147632            0.785714  0.786150
(1001, 0000)     19.178082    3.110952            0.890411  0.890440
(1001, 0001)     20.923077    4.283297            0.923077  0.922833
(1001, 0010)     20.230769    4.303350            0.923077  0.923258
(1001, 0100)     10.890244    1.978762            0.804878  0.805215
(1001, 0110)      8.692308    2.996087            0.884615  0.884762
(1001, 1000)     12.382353    1.892582            0.794118  0.794720
(1001, 1001)      5.580000    0.781262            0.520000  0.519548
(1001, 1010)     13.722222    6.675067            0.944444  0.944555
(1001, 1011)      8.391304    1.535083            0.739130  0.739537
(1001, 1100)     10.536585    1.514427            0.731707  0.730950
(1001, 1101)      2.909091    3.570650            0.909091  0.908830
(1001, 1110)     15.047619    2.571355            0.857143  0.858250
(1101, 0000)     13.652174    1.430845            0.739130  0.738545
(1101, 0001)     22.307692  187.657618            1.000000  1.000000
(1101, 0010)     16.000000    1.735765            0.800000  0.800060
(1101, 0011)     14.200000    2.673950            0.900000  0.899670
(1101, 0100)      4.132450    0.956935            0.602649  0.602910
(1101, 0101)      1.612069    0.730793            0.508621  0.509058
(1101, 0110)     10.850000    2.713630            0.900000  0.899447
(1101, 1000)     11.307692    2.273120            0.865385  0.865640
(1101, 1001)      7.333333    1.972750            0.833333  0.833092
(1101, 1010)      4.233333    1.961575            0.833333  0.832850
(1101, 1100)      2.740260    0.980885            0.610390  0.609845
(1101, 1110)      2.181818    1.375562            0.727273  0.727215
mae_retweet_probability: 0.0005654791163940834
mae_mean_retweets: 5.11890992566955
mape_retweet_probability: 0.0017123459749817428
mape_mean_retweets: 0.7916278832510258
wmape_retweet_probability: 0.0011944983616585963
wmape_mean_retweets: 1.0296770364577281
runtime: 71.8095269203186
Total Time Elapsed: 92.00372457504272
