mpi_size: 48
mpi_vendor: ('MPICH', (3, 4, 2))
Assuming METIS style ids.
readtime: 1.436617374420166
args: Namespace(runid='2021-09-06T08:52:44.527256', graph='../../propagation-master/data/anon_graph_outer_fpoe_20201110.npz', metis_zero_based=False, tweets='../../propagation-master/data/sim_features_fpoe_20201110.csv', stats=None, params=None, discounts=None, corrs=None, source_map=None, indir='../../propagation-master/data', outdir='outdata', features=1, sources=400, samples=1000, epsilon=0.001, max_depth=None, max_nodes=None, sample_split=1, seed=5, command='val', topic='fpoe_20201110')
seed: 5
topic: fpoe_20201110
setuptime: 1.7316944599151611
132 features, 400 sources, 1000 samples
             mean_retweets             retweet_probability          
                      real         sim                real       sim
(0000, 0000)      2.244048    0.362055            0.285714  0.285570
(0000, 0001)      1.753846    0.454585            0.338462  0.338452
(0000, 0010)      4.030303    0.340680            0.272727  0.271330
(0000, 0011)      7.238095    0.743278            0.476190  0.476215
(0000, 0100)      0.773879    0.129447            0.118908  0.118770
(0000, 0110)      1.196203    0.383100            0.297468  0.297875
(0000, 1000)      2.501763    0.424718            0.321974  0.321535
(0000, 1001)      4.377273    0.561287            0.395455  0.395710
(0000, 1010)      1.600000    0.429513            0.325581  0.324792
(0000, 1011)      4.326531    0.730205            0.469388  0.469200
(0000, 1100)      0.917647    0.272893            0.227451  0.226977
(0000, 1101)      3.466667    1.160770            0.600000  0.600325
(0000, 1110)      0.816901    0.268535            0.225352  0.224735
(0001, 0000)      6.167155    0.609145            0.425220  0.423503
(0001, 0001)     12.505376    1.175325            0.623656  0.623925
(0001, 0010)      8.379310    0.515765            0.379310  0.379248
(0001, 0011)      7.862069    1.925635            0.758621  0.758167
(0001, 0100)      1.268935    0.252638            0.216246  0.215675
(0001, 0101)      5.967033    0.882715            0.538462  0.538038
(0001, 0110)      3.266055    0.603307            0.422018  0.422115
(0001, 0111)      4.636364    1.229450            0.636364  0.636733
(0001, 1000)      5.209115    0.707747            0.471850  0.471032
(0001, 1001)      7.167347    1.318607            0.661224  0.662015
(0001, 1010)      3.535519    0.703165            0.469945  0.471180
(0001, 1011)      6.676768    1.355862            0.666667  0.665702
(0001, 1100)      4.282443    0.755275            0.488550  0.487362
(0001, 1101)      6.291667    0.948052            0.558333  0.557110
(0001, 1110)      4.120000    0.830190            0.520000  0.520032
(0001, 1111)      3.470588    1.465250            0.686275  0.685885
(0010, 0000)      2.439294    0.302473            0.247241  0.246963
(0010, 0001)      4.290323    0.487230            0.354839  0.354638
(0010, 0010)      2.230769    0.476022            0.346154  0.346640
(0010, 0011)      1.714286    0.498253            0.357143  0.356488
(0010, 0100)      1.125418    0.251443            0.212375  0.211245
(0010, 0101)      0.588235    0.284515            0.235294  0.234310
(0010, 0110)      0.878136    0.216618            0.186380  0.186542
(0010, 1000)      1.795539    0.368748            0.289963  0.288903
(0010, 1001)      2.017751    0.410270            0.313609  0.312990
(0010, 1010)      1.921260    0.380943            0.295276  0.296162
(0010, 1011)      2.102564    0.964675            0.538462  0.538583
(0010, 1100)      1.355372    0.474322            0.347107  0.347972
(0010, 1101)      1.833333    0.828647            0.500000  0.499885
(0010, 1110)      1.025000    0.306947            0.250000  0.249287
(0011, 0000)      7.330709    0.583870            0.409449  0.408563
(0011, 0001)     11.951220    1.153505            0.609756  0.608973
(0011, 0010)     11.809524    1.200128            0.619048  0.619317
(0011, 0011)     13.571429    1.312758            0.642857  0.642663
(0011, 0100)      2.746753    0.598815            0.415584  0.415442
(0011, 0101)      1.270270    0.254920            0.216216  0.215637
(0011, 0110)      3.592593    1.409220            0.666667  0.665542
(0011, 1000)      3.523810    0.559693            0.395238  0.396302
(0011, 1001)      9.083333    1.349457            0.652778  0.652585
(0011, 1010)      1.514706    0.324417            0.264706  0.264618
(0011, 1011)      9.033333    0.904165            0.533333  0.534075
(0011, 1100)      2.131148    0.543275            0.387978  0.388238
(0011, 1101)     16.645161    0.943452            0.548387  0.547138
(0011, 1110)      3.516129    0.758980            0.483871  0.484372
(0011, 1111)      2.272727    2.807143            0.818182  0.818130
(0100, 0000)      1.681633    0.580405            0.408163  0.408257
(0100, 0001)      0.820000    0.317547            0.260000  0.259493
(0100, 0010)      2.956522    0.256958            0.217391  0.217498
(0100, 0100)      1.092593    0.237147            0.203704  0.203278
(0100, 0101)      5.333333    0.328252            0.266667  0.267487
(0100, 0110)      0.341270    0.209300            0.182540  0.182633
(0100, 1000)      2.506173    0.766575            0.488889  0.487875
(0100, 1001)     10.946667    0.590563            0.413333  0.413048
(0100, 1010)      0.857143    0.357755            0.285714  0.285147
(0100, 1011)      6.320000    0.736123            0.480000  0.477750
(0100, 1100)      2.019704    0.753260            0.487685  0.486325
(0100, 1101)      1.300000    0.232710            0.200000  0.200240
(0100, 1110)      1.600000    0.498000            0.366667  0.366700
(0101, 0000)      3.853801    0.624862            0.444444  0.443213
(0101, 0001)      5.025641    0.978740            0.589744  0.589380
(0101, 0010)     13.909091    0.991170            0.590909  0.591602
(0101, 0100)      1.149556    0.359608            0.294043  0.293205
(0101, 0101)      0.540000    0.227535            0.200000  0.199713
(0101, 0110)      0.607143    0.263820            0.226190  0.226415
(0101, 1000)      1.839806    0.612797            0.436893  0.436880
(0101, 1001)      1.928571    1.002328            0.595238  0.594655
(0101, 1010)      0.600000    0.260973            0.225000  0.224735
(0101, 1011)      2.375000    1.100662            0.625000  0.624840
(0101, 1100)      0.422449    0.107203            0.100000  0.100648
(0101, 1101)      0.678571    0.462392            0.357143  0.357253
(0101, 1110)      1.559140    0.234603            0.204301  0.204790
(0110, 0000)      1.888158    0.432087            0.322368  0.323270
(0110, 0001)      7.120482    1.650965            0.686747  0.688522
(0110, 0010)      1.448276    0.538118            0.379310  0.378310
(0110, 0011)      6.400000    2.104980            0.742857  0.743988
(0110, 0100)      0.805211    0.186370            0.163772  0.163308
(0110, 0101)      1.225806    0.553262            0.387097  0.386773
(0110, 0110)      1.335570    0.394437            0.302013  0.302755
(0110, 1000)      3.314516    0.682212            0.443548  0.445125
(0110, 1001)      2.409091    0.735722            0.463636  0.462355
(0110, 1010)      1.876923    0.851573            0.507692  0.506833
(0110, 1011)      7.833333    1.412337            0.645833  0.646840
(0110, 1100)      2.207207    0.639157            0.423423  0.423860
(0110, 1110)      1.052632    0.462610            0.342105  0.341147
(0111, 0000)      2.380000    0.516990            0.380000  0.379338
(0111, 0001)      2.400000    0.705135            0.466667  0.468063
(0111, 0100)      0.852941    0.094275            0.088235  0.088788
(0111, 0101)      0.049536    0.018652            0.018576  0.018385
(0111, 0110)      0.500000    0.087615            0.083333  0.082835
(0111, 0111)      0.000000    0.000000            0.000000  0.000000
(0111, 1000)      2.585366    0.644083            0.439024  0.438855
(0111, 1001)      1.000000    0.785148            0.500000  0.501387
(0111, 1100)      3.760000    0.412340            0.320000  0.320230
(0111, 1110)      0.904762    0.218853            0.190476  0.190257
(1000, 1000)     20.214286    2.162013            0.785714  0.786147
(1001, 0000)     19.178082    3.060108            0.890411  0.891107
(1001, 0001)     20.923077    4.343400            0.923077  0.923155
(1001, 0010)     20.230769    4.362728            0.923077  0.923330
(1001, 0100)     10.890244    1.955605            0.804878  0.804548
(1001, 0110)      8.692308    2.898400            0.884615  0.884873
(1001, 1000)     12.382353    1.868995            0.794118  0.793885
(1001, 1001)      5.580000    0.780683            0.520000  0.518983
(1001, 1010)     13.722222    6.805715            0.944444  0.944513
(1001, 1011)      8.391304    1.548118            0.739130  0.739843
(1001, 1100)     10.536585    1.504365            0.731707  0.732463
(1001, 1101)      2.909091    3.630460            0.909091  0.908690
(1001, 1110)     15.047619    2.475977            0.857143  0.857167
(1101, 0000)     13.652174    1.418723            0.739130  0.738998
(1101, 0001)     22.307692  199.820232            1.000000  1.000000
(1101, 0010)     16.000000    1.715500            0.800000  0.799455
(1101, 0011)     14.200000    2.848132            0.900000  0.900453
(1101, 0100)      4.132450    0.956317            0.602649  0.602050
(1101, 0101)      1.612069    0.733015            0.508621  0.508510
(1101, 0110)     10.850000    2.752252            0.900000  0.899663
(1101, 1000)     11.307692    2.238882            0.865385  0.865708
(1101, 1001)      7.333333    1.979683            0.833333  0.833557
(1101, 1010)      4.233333    1.950383            0.833333  0.832817
(1101, 1100)      2.740260    0.977180            0.610390  0.609647
(1101, 1110)      2.181818    1.373710            0.727273  0.727077
mae_retweet_probability: 0.0005539273972885931
mae_mean_retweets: 5.211251289305914
mape_retweet_probability: 0.001565588457542978
mape_mean_retweets: 0.795885011281169
wmape_retweet_probability: 0.001170096913142092
wmape_mean_retweets: 1.0482516515676277
runtime: 736.0272843837738
Total Time Elapsed: 739.2016968727112
