mpi_size: 192
mpi_vendor: ('MPICH', (3, 4, 2))
Assuming METIS style ids.
readtime: 1.4199225902557373
args: Namespace(runid='2021-09-05T23:02:12.576966', graph='../../propagation-master/data/anon_graph_outer_fpoe_20201110.npz', metis_zero_based=False, tweets='../../propagation-master/data/sim_features_fpoe_20201110.csv', stats=None, params=None, discounts=None, corrs=None, source_map=None, indir='../../propagation-master/data', outdir='outdata', features=1, sources=400, samples=1000, epsilon=0.001, max_depth=None, max_nodes=None, sample_split=1, seed=2, command='val', topic='fpoe_20201110')
seed: 2
topic: fpoe_20201110
setuptime: 15.191320419311523
132 features, 400 sources, 1000 samples
             mean_retweets             retweet_probability          
                      real         sim                real       sim
(0000, 0000)      2.244048    0.362285            0.285714  0.285255
(0000, 0001)      1.753846    0.453535            0.338462  0.337933
(0000, 0010)      4.030303    0.343983            0.272727  0.272828
(0000, 0011)      7.238095    0.760782            0.476190  0.476530
(0000, 0100)      0.773879    0.129345            0.118908  0.118375
(0000, 0110)      1.196203    0.382635            0.297468  0.297937
(0000, 1000)      2.501763    0.423930            0.321974  0.322350
(0000, 1001)      4.377273    0.563798            0.395455  0.396190
(0000, 1010)      1.600000    0.428553            0.325581  0.325235
(0000, 1011)      4.326531    0.736005            0.469388  0.470373
(0000, 1100)      0.917647    0.274020            0.227451  0.226845
(0000, 1101)      3.466667    1.145280            0.600000  0.600205
(0000, 1110)      0.816901    0.267343            0.225352  0.223895
(0001, 0000)      6.167155    0.609977            0.425220  0.424060
(0001, 0001)     12.505376    1.158982            0.623656  0.624677
(0001, 0010)      8.379310    0.514578            0.379310  0.379545
(0001, 0011)      7.862069    1.934073            0.758621  0.758968
(0001, 0100)      1.268935    0.252507            0.216246  0.215565
(0001, 0101)      5.967033    0.875422            0.538462  0.539018
(0001, 0110)      3.266055    0.593692            0.422018  0.421620
(0001, 0111)      4.636364    1.225352            0.636364  0.636845
(0001, 1000)      5.209115    0.703420            0.471850  0.470985
(0001, 1001)      7.167347    1.333760            0.661224  0.661285
(0001, 1010)      3.535519    0.710873            0.469945  0.470250
(0001, 1011)      6.676768    1.358180            0.666667  0.666975
(0001, 1100)      4.282443    0.756867            0.488550  0.489305
(0001, 1101)      6.291667    0.954595            0.558333  0.558490
(0001, 1110)      4.120000    0.830305            0.520000  0.519452
(0001, 1111)      3.470588    1.440280            0.686275  0.686675
(0010, 0000)      2.439294    0.304815            0.247241  0.247663
(0010, 0001)      4.290323    0.493258            0.354839  0.355365
(0010, 0010)      2.230769    0.470550            0.346154  0.344622
(0010, 0011)      1.714286    0.497305            0.357143  0.358210
(0010, 0100)      1.125418    0.253890            0.212375  0.212990
(0010, 0101)      0.588235    0.287302            0.235294  0.235380
(0010, 0110)      0.878136    0.218702            0.186380  0.187320
(0010, 1000)      1.795539    0.372148            0.289963  0.288750
(0010, 1001)      2.017751    0.412865            0.313609  0.313553
(0010, 1010)      1.921260    0.380290            0.295276  0.295102
(0010, 1011)      2.102564    0.946282            0.538462  0.538493
(0010, 1100)      1.355372    0.475925            0.347107  0.347200
(0010, 1101)      1.833333    0.842625            0.500000  0.500402
(0010, 1110)      1.025000    0.307540            0.250000  0.248065
(0011, 0000)      7.330709    0.589483            0.409449  0.410787
(0011, 0001)     11.951220    1.163098            0.609756  0.610580
(0011, 0010)     11.809524    1.187595            0.619048  0.618735
(0011, 0011)     13.571429    1.327438            0.642857  0.643457
(0011, 0100)      2.746753    0.597060            0.415584  0.414370
(0011, 0101)      1.270270    0.254520            0.216216  0.215110
(0011, 0110)      3.592593    1.419950            0.666667  0.667658
(0011, 1000)      3.523810    0.558582            0.395238  0.394898
(0011, 1001)      9.083333    1.348040            0.652778  0.653102
(0011, 1010)      1.514706    0.326835            0.264706  0.265157
(0011, 1011)      9.033333    0.895917            0.533333  0.532417
(0011, 1100)      2.131148    0.544917            0.387978  0.388340
(0011, 1101)     16.645161    0.944560            0.548387  0.548882
(0011, 1110)      3.516129    0.762305            0.483871  0.484162
(0011, 1111)      2.272727    2.871572            0.818182  0.817680
(0100, 0000)      1.681633    0.578195            0.408163  0.407433
(0100, 0001)      0.820000    0.317892            0.260000  0.259390
(0100, 0010)      2.956522    0.255402            0.217391  0.217482
(0100, 0100)      1.092593    0.237568            0.203704  0.203638
(0100, 0101)      5.333333    0.326953            0.266667  0.266865
(0100, 0110)      0.341270    0.208233            0.182540  0.181795
(0100, 1000)      2.506173    0.771035            0.488889  0.489937
(0100, 1001)     10.946667    0.593772            0.413333  0.413957
(0100, 1010)      0.857143    0.358397            0.285714  0.285782
(0100, 1011)      6.320000    0.744067            0.480000  0.480385
(0100, 1100)      2.019704    0.761492            0.487685  0.488040
(0100, 1101)      1.300000    0.230158            0.200000  0.199433
(0100, 1110)      1.600000    0.495243            0.366667  0.365795
(0101, 0000)      3.853801    0.625637            0.444444  0.445157
(0101, 0001)      5.025641    0.991758            0.589744  0.589677
(0101, 0010)     13.909091    1.003640            0.590909  0.591777
(0101, 0100)      1.149556    0.360970            0.294043  0.293720
(0101, 0101)      0.540000    0.227580            0.200000  0.199685
(0101, 0110)      0.607143    0.263972            0.226190  0.226900
(0101, 1000)      1.839806    0.613973            0.436893  0.437840
(0101, 1001)      1.928571    0.998467            0.595238  0.594063
(0101, 1010)      0.600000    0.261352            0.225000  0.225230
(0101, 1011)      2.375000    1.098705            0.625000  0.625760
(0101, 1100)      0.422449    0.106627            0.100000  0.100130
(0101, 1101)      0.678571    0.461280            0.357143  0.356750
(0101, 1110)      1.559140    0.233420            0.204301  0.203948
(0110, 0000)      1.888158    0.428745            0.322368  0.322182
(0110, 0001)      7.120482    1.662343            0.686747  0.687593
(0110, 0010)      1.448276    0.535497            0.379310  0.378093
(0110, 0011)      6.400000    2.126660            0.742857  0.742818
(0110, 0100)      0.805211    0.185898            0.163772  0.163430
(0110, 0101)      1.225806    0.556355            0.387097  0.388355
(0110, 0110)      1.335570    0.394140            0.302013  0.301373
(0110, 1000)      3.314516    0.683537            0.443548  0.444985
(0110, 1001)      2.409091    0.732345            0.463636  0.462845
(0110, 1010)      1.876923    0.867968            0.507692  0.508775
(0110, 1011)      7.833333    1.408573            0.645833  0.646728
(0110, 1100)      2.207207    0.634665            0.423423  0.424235
(0110, 1110)      1.052632    0.465610            0.342105  0.341338
(0111, 0000)      2.380000    0.514647            0.380000  0.379417
(0111, 0001)      2.400000    0.699320            0.466667  0.465420
(0111, 0100)      0.852941    0.093932            0.088235  0.088477
(0111, 0101)      0.049536    0.018220            0.018576  0.018010
(0111, 0110)      0.500000    0.087100            0.083333  0.082270
(0111, 0111)      0.000000    0.000000            0.000000  0.000000
(0111, 1000)      2.585366    0.642968            0.439024  0.437957
(0111, 1001)      1.000000    0.772112            0.500000  0.500313
(0111, 1100)      3.760000    0.409807            0.320000  0.319057
(0111, 1110)      0.904762    0.217910            0.190476  0.190607
(1000, 1000)     20.214286    2.116078            0.785714  0.786755
(1001, 0000)     19.178082    3.116862            0.890411  0.890377
(1001, 0001)     20.923077    4.309480            0.923077  0.923063
(1001, 0010)     20.230769    4.280955            0.923077  0.923050
(1001, 0100)     10.890244    1.979920            0.804878  0.804760
(1001, 0110)      8.692308    3.003023            0.884615  0.883723
(1001, 1000)     12.382353    1.885593            0.794118  0.792820
(1001, 1001)      5.580000    0.779167            0.520000  0.519738
(1001, 1010)     13.722222    6.915897            0.944444  0.943985
(1001, 1011)      8.391304    1.538703            0.739130  0.738875
(1001, 1100)     10.536585    1.508155            0.731707  0.732600
(1001, 1101)      2.909091    3.541977            0.909091  0.908285
(1001, 1110)     15.047619    2.526063            0.857143  0.857692
(1101, 0000)     13.652174    1.430190            0.739130  0.739277
(1101, 0001)     22.307692  185.151573            1.000000  0.999992
(1101, 0010)     16.000000    1.715677            0.800000  0.799360
(1101, 0011)     14.200000    2.744362            0.900000  0.900283
(1101, 0100)      4.132450    0.955308            0.602649  0.601245
(1101, 0101)      1.612069    0.728432            0.508621  0.507438
(1101, 0110)     10.850000    2.660208            0.900000  0.899895
(1101, 1000)     11.307692    2.225573            0.865385  0.865765
(1101, 1001)      7.333333    1.963417            0.833333  0.832982
(1101, 1010)      4.233333    1.950597            0.833333  0.833427
(1101, 1100)      2.740260    0.978630            0.610390  0.609465
(1101, 1110)      2.181818    1.371148            0.727273  0.726770
mae_retweet_probability: 0.0005838367206112573
mae_mean_retweets: 5.099634622639247
mape_retweet_probability: 0.00182720377195415
mape_mean_retweets: 0.7909240719051365
wmape_retweet_probability: 0.0012332763244969436
wmape_mean_retweets: 1.0257997779809689
runtime: 208.95975160598755
Total Time Elapsed: 225.57815313339233
