mpi_size: 768
mpi_vendor: ('MPICH', (3, 4, 2))
Assuming METIS style ids.
readtime: 1.4397478103637695
args: Namespace(runid='2021-09-06T08:45:38.891615', graph='../../propagation-master/data/anon_graph_outer_fpoe_20201110.npz', metis_zero_based=False, tweets='../../propagation-master/data/sim_features_fpoe_20201110.csv', stats=None, params=None, discounts=None, corrs=None, source_map=None, indir='../../propagation-master/data', outdir='outdata', features=1, sources=400, samples=1000, epsilon=0.001, max_depth=None, max_nodes=None, sample_split=1, seed=6, command='val', topic='fpoe_20201110')
seed: 6
topic: fpoe_20201110
setuptime: 17.643282890319824
132 features, 400 sources, 1000 samples
             mean_retweets             retweet_probability          
                      real         sim                real       sim
(0000, 0000)      2.244048    0.361013            0.285714  0.285172
(0000, 0001)      1.753846    0.455358            0.338462  0.338523
(0000, 0010)      4.030303    0.341903            0.272727  0.272925
(0000, 0011)      7.238095    0.751020            0.476190  0.476072
(0000, 0100)      0.773879    0.131135            0.118908  0.119443
(0000, 0110)      1.196203    0.380973            0.297468  0.296923
(0000, 1000)      2.501763    0.421247            0.321974  0.321227
(0000, 1001)      4.377273    0.566647            0.395455  0.395785
(0000, 1010)      1.600000    0.430430            0.325581  0.325345
(0000, 1011)      4.326531    0.740158            0.469388  0.469848
(0000, 1100)      0.917647    0.272542            0.227451  0.226863
(0000, 1101)      3.466667    1.142770            0.600000  0.599435
(0000, 1110)      0.816901    0.270615            0.225352  0.225532
(0001, 0000)      6.167155    0.607920            0.425220  0.425110
(0001, 0001)     12.505376    1.180805            0.623656  0.624200
(0001, 0010)      8.379310    0.513728            0.379310  0.377587
(0001, 0011)      7.862069    1.925472            0.758621  0.757662
(0001, 0100)      1.268935    0.253007            0.216246  0.216178
(0001, 0101)      5.967033    0.893852            0.538462  0.538892
(0001, 0110)      3.266055    0.603052            0.422018  0.422370
(0001, 0111)      4.636364    1.227073            0.636364  0.635962
(0001, 1000)      5.209115    0.706100            0.471850  0.472417
(0001, 1001)      7.167347    1.328060            0.661224  0.662177
(0001, 1010)      3.535519    0.700060            0.469945  0.468580
(0001, 1011)      6.676768    1.361377            0.666667  0.666417
(0001, 1100)      4.282443    0.753835            0.488550  0.486887
(0001, 1101)      6.291667    0.952665            0.558333  0.559173
(0001, 1110)      4.120000    0.845108            0.520000  0.520490
(0001, 1111)      3.470588    1.465192            0.686275  0.686573
(0010, 0000)      2.439294    0.301783            0.247241  0.245810
(0010, 0001)      4.290323    0.491688            0.354839  0.355122
(0010, 0010)      2.230769    0.480542            0.346154  0.347860
(0010, 0011)      1.714286    0.489813            0.357143  0.356033
(0010, 0100)      1.125418    0.252685            0.212375  0.212587
(0010, 0101)      0.588235    0.286058            0.235294  0.235235
(0010, 0110)      0.878136    0.216933            0.186380  0.187298
(0010, 1000)      1.795539    0.371793            0.289963  0.290477
(0010, 1001)      2.017751    0.408435            0.313609  0.313780
(0010, 1010)      1.921260    0.381910            0.295276  0.296472
(0010, 1011)      2.102564    0.965823            0.538462  0.539160
(0010, 1100)      1.355372    0.475260            0.347107  0.348470
(0010, 1101)      1.833333    0.831665            0.500000  0.499897
(0010, 1110)      1.025000    0.308860            0.250000  0.250500
(0011, 0000)      7.330709    0.587253            0.409449  0.410632
(0011, 0001)     11.951220    1.164965            0.609756  0.609592
(0011, 0010)     11.809524    1.208665            0.619048  0.620045
(0011, 0011)     13.571429    1.325222            0.642857  0.643665
(0011, 0100)      2.746753    0.597510            0.415584  0.414882
(0011, 0101)      1.270270    0.256458            0.216216  0.216777
(0011, 0110)      3.592593    1.411750            0.666667  0.666010
(0011, 1000)      3.523810    0.555730            0.395238  0.394338
(0011, 1001)      9.083333    1.326467            0.652778  0.652247
(0011, 1010)      1.514706    0.326125            0.264706  0.264020
(0011, 1011)      9.033333    0.901823            0.533333  0.533568
(0011, 1100)      2.131148    0.540212            0.387978  0.387230
(0011, 1101)     16.645161    0.944650            0.548387  0.548132
(0011, 1110)      3.516129    0.759380            0.483871  0.483328
(0011, 1111)      2.272727    2.805595            0.818182  0.818405
(0100, 0000)      1.681633    0.573252            0.408163  0.407287
(0100, 0001)      0.820000    0.318990            0.260000  0.260275
(0100, 0010)      2.956522    0.255252            0.217391  0.216550
(0100, 0100)      1.092593    0.237760            0.203704  0.204967
(0100, 0101)      5.333333    0.329628            0.266667  0.266885
(0100, 0110)      0.341270    0.208380            0.182540  0.182100
(0100, 1000)      2.506173    0.766720            0.488889  0.488325
(0100, 1001)     10.946667    0.587420            0.413333  0.412877
(0100, 1010)      0.857143    0.356392            0.285714  0.285432
(0100, 1011)      6.320000    0.737445            0.480000  0.481070
(0100, 1100)      2.019704    0.756650            0.487685  0.488702
(0100, 1101)      1.300000    0.231960            0.200000  0.199955
(0100, 1110)      1.600000    0.500655            0.366667  0.367300
(0101, 0000)      3.853801    0.624170            0.444444  0.443950
(0101, 0001)      5.025641    0.989417            0.589744  0.590590
(0101, 0010)     13.909091    0.999080            0.590909  0.592260
(0101, 0100)      1.149556    0.360758            0.294043  0.294232
(0101, 0101)      0.540000    0.227570            0.200000  0.199760
(0101, 0110)      0.607143    0.262275            0.226190  0.225280
(0101, 1000)      1.839806    0.612163            0.436893  0.437980
(0101, 1001)      1.928571    1.011350            0.595238  0.595070
(0101, 1010)      0.600000    0.262078            0.225000  0.225110
(0101, 1011)      2.375000    1.108470            0.625000  0.625982
(0101, 1100)      0.422449    0.106758            0.100000  0.100353
(0101, 1101)      0.678571    0.464470            0.357143  0.356990
(0101, 1110)      1.559140    0.233238            0.204301  0.204088
(0110, 0000)      1.888158    0.429470            0.322368  0.322057
(0110, 0001)      7.120482    1.687082            0.686747  0.687858
(0110, 0010)      1.448276    0.540318            0.379310  0.379003
(0110, 0011)      6.400000    2.105165            0.742857  0.743108
(0110, 0100)      0.805211    0.186695            0.163772  0.163880
(0110, 0101)      1.225806    0.555930            0.387097  0.387625
(0110, 0110)      1.335570    0.395648            0.302013  0.301985
(0110, 1000)      3.314516    0.689702            0.443548  0.444445
(0110, 1001)      2.409091    0.741552            0.463636  0.464948
(0110, 1010)      1.876923    0.867737            0.507692  0.507460
(0110, 1011)      7.833333    1.421257            0.645833  0.645500
(0110, 1100)      2.207207    0.633765            0.423423  0.421602
(0110, 1110)      1.052632    0.465925            0.342105  0.341423
(0111, 0000)      2.380000    0.512140            0.380000  0.379688
(0111, 0001)      2.400000    0.699645            0.466667  0.466590
(0111, 0100)      0.852941    0.092957            0.088235  0.087705
(0111, 0101)      0.049536    0.018460            0.018576  0.018222
(0111, 0110)      0.500000    0.088382            0.083333  0.083482
(0111, 0111)      0.000000    0.000000            0.000000  0.000000
(0111, 1000)      2.585366    0.643605            0.439024  0.438572
(0111, 1001)      1.000000    0.781875            0.500000  0.499783
(0111, 1100)      3.760000    0.410498            0.320000  0.320695
(0111, 1110)      0.904762    0.218400            0.190476  0.190467
(1000, 1000)     20.214286    2.175327            0.785714  0.786003
(1001, 0000)     19.178082    3.138320            0.890411  0.890607
(1001, 0001)     20.923077    4.110255            0.923077  0.923025
(1001, 0010)     20.230769    4.500222            0.923077  0.923667
(1001, 0100)     10.890244    1.973393            0.804878  0.805645
(1001, 0110)      8.692308    2.974597            0.884615  0.883907
(1001, 1000)     12.382353    1.910960            0.794118  0.795192
(1001, 1001)      5.580000    0.782325            0.520000  0.520173
(1001, 1010)     13.722222    6.506533            0.944444  0.944367
(1001, 1011)      8.391304    1.551830            0.739130  0.740105
(1001, 1100)     10.536585    1.495972            0.731707  0.731855
(1001, 1101)      2.909091    3.429550            0.909091  0.909518
(1001, 1110)     15.047619    2.466535            0.857143  0.858023
(1101, 0000)     13.652174    1.423897            0.739130  0.739037
(1101, 0001)     22.307692  187.910898            1.000000  0.999995
(1101, 0010)     16.000000    1.731542            0.800000  0.800318
(1101, 0011)     14.200000    2.783707            0.900000  0.899567
(1101, 0100)      4.132450    0.954050            0.602649  0.602483
(1101, 0101)      1.612069    0.728125            0.508621  0.509848
(1101, 0110)     10.850000    2.696060            0.900000  0.900012
(1101, 1000)     11.307692    2.274878            0.865385  0.865492
(1101, 1001)      7.333333    1.956960            0.833333  0.833533
(1101, 1010)      4.233333    1.997242            0.833333  0.833978
(1101, 1100)      2.740260    0.983290            0.610390  0.610853
(1101, 1110)      2.181818    1.367943            0.727273  0.726347
mae_retweet_probability: 0.0005478800024662577
mae_mean_retweets: 5.120025588548338
mape_retweet_probability: 0.0015786207046638255
mape_mean_retweets: 0.79107952784803
wmape_retweet_probability: 0.0011573226072514602
wmape_mean_retweets: 1.0299014538558457
runtime: 80.30647730827332
Total Time Elapsed: 99.40426301956177
