mpi_size: 96
mpi_vendor: ('MPICH', (3, 4, 2))
Assuming METIS style ids.
readtime: 1.4260518550872803
args: Namespace(runid='2021-09-05T23:17:59.713465', graph='../../propagation-master/data/anon_graph_outer_fpoe_20201110.npz', metis_zero_based=False, tweets='../../propagation-master/data/sim_features_fpoe_20201110.csv', stats=None, params=None, discounts=None, corrs=None, source_map=None, indir='../../propagation-master/data', outdir='outdata', features=1, sources=400, samples=1000, epsilon=0.001, max_depth=None, max_nodes=None, sample_split=1, seed=12, command='val', topic='fpoe_20201110')
seed: 12
topic: fpoe_20201110
setuptime: 8.215709447860718
132 features, 400 sources, 1000 samples
             mean_retweets             retweet_probability          
                      real         sim                real       sim
(0000, 0000)      2.244048    0.367035            0.285714  0.287740
(0000, 0001)      1.753846    0.451497            0.338462  0.337823
(0000, 0010)      4.030303    0.339467            0.272727  0.272198
(0000, 0011)      7.238095    0.760035            0.476190  0.476145
(0000, 0100)      0.773879    0.129718            0.118908  0.119145
(0000, 0110)      1.196203    0.382200            0.297468  0.297225
(0000, 1000)      2.501763    0.422758            0.321974  0.320845
(0000, 1001)      4.377273    0.564318            0.395455  0.395065
(0000, 1010)      1.600000    0.432760            0.325581  0.325622
(0000, 1011)      4.326531    0.726688            0.469388  0.468535
(0000, 1100)      0.917647    0.273850            0.227451  0.228368
(0000, 1101)      3.466667    1.146948            0.600000  0.598557
(0000, 1110)      0.816901    0.270780            0.225352  0.226173
(0001, 0000)      6.167155    0.607108            0.425220  0.424357
(0001, 0001)     12.505376    1.181457            0.623656  0.623333
(0001, 0010)      8.379310    0.516760            0.379310  0.379112
(0001, 0011)      7.862069    1.897262            0.758621  0.759600
(0001, 0100)      1.268935    0.252625            0.216246  0.216250
(0001, 0101)      5.967033    0.877688            0.538462  0.538715
(0001, 0110)      3.266055    0.604220            0.422018  0.424152
(0001, 0111)      4.636364    1.227332            0.636364  0.637398
(0001, 1000)      5.209115    0.710053            0.471850  0.470853
(0001, 1001)      7.167347    1.339045            0.661224  0.662205
(0001, 1010)      3.535519    0.713788            0.469945  0.469927
(0001, 1011)      6.676768    1.349263            0.666667  0.667042
(0001, 1100)      4.282443    0.754443            0.488550  0.490270
(0001, 1101)      6.291667    0.940327            0.558333  0.558183
(0001, 1110)      4.120000    0.832798            0.520000  0.519358
(0001, 1111)      3.470588    1.439765            0.686275  0.686132
(0010, 0000)      2.439294    0.302403            0.247241  0.246280
(0010, 0001)      4.290323    0.491315            0.354839  0.355040
(0010, 0010)      2.230769    0.471125            0.346154  0.345600
(0010, 0011)      1.714286    0.490423            0.357143  0.356455
(0010, 0100)      1.125418    0.252625            0.212375  0.212157
(0010, 0101)      0.588235    0.286715            0.235294  0.235455
(0010, 0110)      0.878136    0.215780            0.186380  0.185272
(0010, 1000)      1.795539    0.372505            0.289963  0.289853
(0010, 1001)      2.017751    0.411375            0.313609  0.312983
(0010, 1010)      1.921260    0.382650            0.295276  0.295385
(0010, 1011)      2.102564    0.932053            0.538462  0.538595
(0010, 1100)      1.355372    0.473683            0.347107  0.346467
(0010, 1101)      1.833333    0.849017            0.500000  0.498597
(0010, 1110)      1.025000    0.309482            0.250000  0.249625
(0011, 0000)      7.330709    0.590398            0.409449  0.409610
(0011, 0001)     11.951220    1.143352            0.609756  0.609343
(0011, 0010)     11.809524    1.191032            0.619048  0.619640
(0011, 0011)     13.571429    1.302502            0.642857  0.643107
(0011, 0100)      2.746753    0.597442            0.415584  0.415538
(0011, 0101)      1.270270    0.255560            0.216216  0.216545
(0011, 0110)      3.592593    1.449023            0.666667  0.665090
(0011, 1000)      3.523810    0.553975            0.395238  0.394763
(0011, 1001)      9.083333    1.368197            0.652778  0.652835
(0011, 1010)      1.514706    0.329120            0.264706  0.266035
(0011, 1011)      9.033333    0.894828            0.533333  0.531645
(0011, 1100)      2.131148    0.540955            0.387978  0.387248
(0011, 1101)     16.645161    0.933675            0.548387  0.547913
(0011, 1110)      3.516129    0.762465            0.483871  0.484050
(0011, 1111)      2.272727    2.762713            0.818182  0.818565
(0100, 0000)      1.681633    0.581253            0.408163  0.408367
(0100, 0001)      0.820000    0.317277            0.260000  0.259550
(0100, 0010)      2.956522    0.254293            0.217391  0.216773
(0100, 0100)      1.092593    0.237460            0.203704  0.204697
(0100, 0101)      5.333333    0.328397            0.266667  0.267018
(0100, 0110)      0.341270    0.208218            0.182540  0.181970
(0100, 1000)      2.506173    0.761093            0.488889  0.488357
(0100, 1001)     10.946667    0.591098            0.413333  0.414033
(0100, 1010)      0.857143    0.357240            0.285714  0.285062
(0100, 1011)      6.320000    0.744820            0.480000  0.480193
(0100, 1100)      2.019704    0.756823            0.487685  0.486782
(0100, 1101)      1.300000    0.233008            0.200000  0.200900
(0100, 1110)      1.600000    0.497038            0.366667  0.366873
(0101, 0000)      3.853801    0.629052            0.444444  0.444557
(0101, 0001)      5.025641    0.991740            0.589744  0.588845
(0101, 0010)     13.909091    0.989430            0.590909  0.590853
(0101, 0100)      1.149556    0.360503            0.294043  0.294175
(0101, 0101)      0.540000    0.228125            0.200000  0.199455
(0101, 0110)      0.607143    0.263792            0.226190  0.226077
(0101, 1000)      1.839806    0.613807            0.436893  0.438460
(0101, 1001)      1.928571    1.000663            0.595238  0.594940
(0101, 1010)      0.600000    0.261865            0.225000  0.225150
(0101, 1011)      2.375000    1.120847            0.625000  0.625390
(0101, 1100)      0.422449    0.107033            0.100000  0.100640
(0101, 1101)      0.678571    0.461573            0.357143  0.356340
(0101, 1110)      1.559140    0.233863            0.204301  0.204773
(0110, 0000)      1.888158    0.431750            0.322368  0.322788
(0110, 0001)      7.120482    1.667993            0.686747  0.686090
(0110, 0010)      1.448276    0.537752            0.379310  0.378865
(0110, 0011)      6.400000    2.077735            0.742857  0.743157
(0110, 0100)      0.805211    0.187597            0.163772  0.164387
(0110, 0101)      1.225806    0.556757            0.387097  0.387085
(0110, 0110)      1.335570    0.393170            0.302013  0.302015
(0110, 1000)      3.314516    0.687495            0.443548  0.443837
(0110, 1001)      2.409091    0.741413            0.463636  0.463918
(0110, 1010)      1.876923    0.864910            0.507692  0.508008
(0110, 1011)      7.833333    1.406665            0.645833  0.646530
(0110, 1100)      2.207207    0.639780            0.423423  0.422407
(0110, 1110)      1.052632    0.466950            0.342105  0.341547
(0111, 0000)      2.380000    0.515633            0.380000  0.378917
(0111, 0001)      2.400000    0.702147            0.466667  0.467292
(0111, 0100)      0.852941    0.094210            0.088235  0.088790
(0111, 0101)      0.049536    0.018840            0.018576  0.018613
(0111, 0110)      0.500000    0.088365            0.083333  0.083585
(0111, 0111)      0.000000    0.000000            0.000000  0.000000
(0111, 1000)      2.585366    0.643783            0.439024  0.439405
(0111, 1001)      1.000000    0.783520            0.500000  0.499213
(0111, 1100)      3.760000    0.410222            0.320000  0.319035
(0111, 1110)      0.904762    0.219830            0.190476  0.191438
(1000, 1000)     20.214286    2.149132            0.785714  0.786252
(1001, 0000)     19.178082    3.099630            0.890411  0.890613
(1001, 0001)     20.923077    4.192778            0.923077  0.923307
(1001, 0010)     20.230769    4.340300            0.923077  0.923208
(1001, 0100)     10.890244    1.961712            0.804878  0.806130
(1001, 0110)      8.692308    2.960035            0.884615  0.884250
(1001, 1000)     12.382353    1.890790            0.794118  0.793495
(1001, 1001)      5.580000    0.782848            0.520000  0.521408
(1001, 1010)     13.722222    6.615232            0.944444  0.944540
(1001, 1011)      8.391304    1.547665            0.739130  0.739857
(1001, 1100)     10.536585    1.497425            0.731707  0.733167
(1001, 1101)      2.909091    3.579973            0.909091  0.908760
(1001, 1110)     15.047619    2.472797            0.857143  0.857262
(1101, 0000)     13.652174    1.427582            0.739130  0.738675
(1101, 0001)     22.307692  195.342100            1.000000  0.999995
(1101, 0010)     16.000000    1.752980            0.800000  0.800300
(1101, 0011)     14.200000    2.714580            0.900000  0.900185
(1101, 0100)      4.132450    0.961023            0.602649  0.604255
(1101, 0101)      1.612069    0.728402            0.508621  0.508185
(1101, 0110)     10.850000    2.854193            0.900000  0.899857
(1101, 1000)     11.307692    2.232675            0.865385  0.865778
(1101, 1001)      7.333333    1.932452            0.833333  0.833992
(1101, 1010)      4.233333    1.988007            0.833333  0.834075
(1101, 1100)      2.740260    0.974418            0.610390  0.610240
(1101, 1110)      2.181818    1.370730            0.727273  0.727283
mae_retweet_probability: 0.0005558070353968112
mae_mean_retweets: 5.178388599911975
mape_retweet_probability: 0.0015451062481730436
mape_mean_retweets: 0.79389759711533
wmape_retweet_probability: 0.001174067395120445
wmape_mean_retweets: 1.0416412682796745
runtime: 358.8671336174011
Total Time Elapsed: 368.5158152580261
