mpi_size: 768
mpi_vendor: ('MPICH', (3, 4, 2))
Assuming METIS style ids.
readtime: 2.6617417335510254
args: Namespace(runid='2021-09-06T08:45:36.645532', graph='../../propagation-master/data/anon_graph_outer_fpoe_20201110.npz', metis_zero_based=False, tweets='../../propagation-master/data/sim_features_fpoe_20201110.csv', stats=None, params=None, discounts=None, corrs=None, source_map=None, indir='../../propagation-master/data', outdir='outdata', features=1, sources=400, samples=1000, epsilon=0.001, max_depth=None, max_nodes=None, sample_split=1, seed=11, command='val', topic='fpoe_20201110')
seed: 11
topic: fpoe_20201110
setuptime: 19.881858110427856
132 features, 400 sources, 1000 samples
             mean_retweets             retweet_probability          
                      real         sim                real       sim
(0000, 0000)      2.244048    0.360243            0.285714  0.286820
(0000, 0001)      1.753846    0.453732            0.338462  0.338377
(0000, 0010)      4.030303    0.339218            0.272727  0.271430
(0000, 0011)      7.238095    0.750233            0.476190  0.476275
(0000, 0100)      0.773879    0.130045            0.118908  0.119023
(0000, 0110)      1.196203    0.380260            0.297468  0.296692
(0000, 1000)      2.501763    0.422542            0.321974  0.321968
(0000, 1001)      4.377273    0.573662            0.395455  0.396917
(0000, 1010)      1.600000    0.427772            0.325581  0.324592
(0000, 1011)      4.326531    0.738430            0.469388  0.469438
(0000, 1100)      0.917647    0.273000            0.227451  0.227170
(0000, 1101)      3.466667    1.151260            0.600000  0.600492
(0000, 1110)      0.816901    0.271332            0.225352  0.225455
(0001, 0000)      6.167155    0.606305            0.425220  0.425300
(0001, 0001)     12.505376    1.184900            0.623656  0.623047
(0001, 0010)      8.379310    0.515610            0.379310  0.378905
(0001, 0011)      7.862069    1.937767            0.758621  0.758600
(0001, 0100)      1.268935    0.253358            0.216246  0.215930
(0001, 0101)      5.967033    0.896168            0.538462  0.538540
(0001, 0110)      3.266055    0.607283            0.422018  0.423045
(0001, 0111)      4.636364    1.241825            0.636364  0.636918
(0001, 1000)      5.209115    0.712807            0.471850  0.472893
(0001, 1001)      7.167347    1.352470            0.661224  0.660093
(0001, 1010)      3.535519    0.706605            0.469945  0.468828
(0001, 1011)      6.676768    1.367560            0.666667  0.665465
(0001, 1100)      4.282443    0.755552            0.488550  0.486972
(0001, 1101)      6.291667    0.953155            0.558333  0.557468
(0001, 1110)      4.120000    0.828580            0.520000  0.519728
(0001, 1111)      3.470588    1.463197            0.686275  0.685867
(0010, 0000)      2.439294    0.302665            0.247241  0.246463
(0010, 0001)      4.290323    0.485270            0.354839  0.354348
(0010, 0010)      2.230769    0.473397            0.346154  0.347237
(0010, 0011)      1.714286    0.497447            0.357143  0.358315
(0010, 0100)      1.125418    0.252820            0.212375  0.212275
(0010, 0101)      0.588235    0.287117            0.235294  0.235160
(0010, 0110)      0.878136    0.217128            0.186380  0.186797
(0010, 1000)      1.795539    0.374365            0.289963  0.290643
(0010, 1001)      2.017751    0.409200            0.313609  0.312758
(0010, 1010)      1.921260    0.381860            0.295276  0.295683
(0010, 1011)      2.102564    0.953935            0.538462  0.540195
(0010, 1100)      1.355372    0.474415            0.347107  0.347338
(0010, 1101)      1.833333    0.842312            0.500000  0.499730
(0010, 1110)      1.025000    0.307643            0.250000  0.249830
(0011, 0000)      7.330709    0.585643            0.409449  0.408475
(0011, 0001)     11.951220    1.178685            0.609756  0.610125
(0011, 0010)     11.809524    1.219175            0.619048  0.618437
(0011, 0011)     13.571429    1.321255            0.642857  0.643518
(0011, 0100)      2.746753    0.598208            0.415584  0.416387
(0011, 0101)      1.270270    0.256422            0.216216  0.216760
(0011, 0110)      3.592593    1.424120            0.666667  0.666025
(0011, 1000)      3.523810    0.560150            0.395238  0.394560
(0011, 1001)      9.083333    1.353317            0.652778  0.653565
(0011, 1010)      1.514706    0.325755            0.264706  0.264207
(0011, 1011)      9.033333    0.896147            0.533333  0.532623
(0011, 1100)      2.131148    0.543753            0.387978  0.386870
(0011, 1101)     16.645161    0.939625            0.548387  0.548810
(0011, 1110)      3.516129    0.753878            0.483871  0.483037
(0011, 1111)      2.272727    2.851898            0.818182  0.817568
(0100, 0000)      1.681633    0.583817            0.408163  0.408475
(0100, 0001)      0.820000    0.318663            0.260000  0.261043
(0100, 0010)      2.956522    0.255480            0.217391  0.217100
(0100, 0100)      1.092593    0.236618            0.203704  0.203385
(0100, 0101)      5.333333    0.325865            0.266667  0.266012
(0100, 0110)      0.341270    0.209833            0.182540  0.183515
(0100, 1000)      2.506173    0.767698            0.488889  0.489940
(0100, 1001)     10.946667    0.586317            0.413333  0.412930
(0100, 1010)      0.857143    0.357803            0.285714  0.286515
(0100, 1011)      6.320000    0.735738            0.480000  0.479230
(0100, 1100)      2.019704    0.763157            0.487685  0.487205
(0100, 1101)      1.300000    0.230730            0.200000  0.199315
(0100, 1110)      1.600000    0.494160            0.366667  0.367055
(0101, 0000)      3.853801    0.629822            0.444444  0.445855
(0101, 0001)      5.025641    0.987833            0.589744  0.590332
(0101, 0010)     13.909091    0.992097            0.590909  0.591207
(0101, 0100)      1.149556    0.363465            0.294043  0.294932
(0101, 0101)      0.540000    0.229068            0.200000  0.200718
(0101, 0110)      0.607143    0.262265            0.226190  0.225795
(0101, 1000)      1.839806    0.611855            0.436893  0.436230
(0101, 1001)      1.928571    1.004150            0.595238  0.595285
(0101, 1010)      0.600000    0.261288            0.225000  0.225183
(0101, 1011)      2.375000    1.102233            0.625000  0.624982
(0101, 1100)      0.422449    0.105843            0.100000  0.099525
(0101, 1101)      0.678571    0.465290            0.357143  0.358870
(0101, 1110)      1.559140    0.233270            0.204301  0.203990
(0110, 0000)      1.888158    0.426248            0.322368  0.321090
(0110, 0001)      7.120482    1.650820            0.686747  0.686148
(0110, 0010)      1.448276    0.537648            0.379310  0.380777
(0110, 0011)      6.400000    2.060820            0.742857  0.742442
(0110, 0100)      0.805211    0.187222            0.163772  0.164540
(0110, 0101)      1.225806    0.556320            0.387097  0.386923
(0110, 0110)      1.335570    0.394485            0.302013  0.302410
(0110, 1000)      3.314516    0.680422            0.443548  0.444048
(0110, 1001)      2.409091    0.733850            0.463636  0.463705
(0110, 1010)      1.876923    0.860238            0.507692  0.507780
(0110, 1011)      7.833333    1.414913            0.645833  0.643775
(0110, 1100)      2.207207    0.640197            0.423423  0.424223
(0110, 1110)      1.052632    0.467683            0.342105  0.341312
(0111, 0000)      2.380000    0.520470            0.380000  0.380020
(0111, 0001)      2.400000    0.704782            0.466667  0.466730
(0111, 0100)      0.852941    0.093462            0.088235  0.088197
(0111, 0101)      0.049536    0.018447            0.018576  0.018202
(0111, 0110)      0.500000    0.088620            0.083333  0.083772
(0111, 0111)      0.000000    0.000000            0.000000  0.000000
(0111, 1000)      2.585366    0.635228            0.439024  0.438242
(0111, 1001)      1.000000    0.784493            0.500000  0.500160
(0111, 1100)      3.760000    0.409947            0.320000  0.320048
(0111, 1110)      0.904762    0.218655            0.190476  0.190673
(1000, 1000)     20.214286    2.193560            0.785714  0.787063
(1001, 0000)     19.178082    3.075967            0.890411  0.890192
(1001, 0001)     20.923077    4.510030            0.923077  0.922758
(1001, 0010)     20.230769    4.260435            0.923077  0.923315
(1001, 0100)     10.890244    1.957707            0.804878  0.805735
(1001, 0110)      8.692308    3.027270            0.884615  0.885915
(1001, 1000)     12.382353    1.862880            0.794118  0.794155
(1001, 1001)      5.580000    0.778307            0.520000  0.517585
(1001, 1010)     13.722222    6.440175            0.944444  0.944442
(1001, 1011)      8.391304    1.549890            0.739130  0.738062
(1001, 1100)     10.536585    1.496277            0.731707  0.732517
(1001, 1101)      2.909091    3.639283            0.909091  0.908768
(1001, 1110)     15.047619    2.492940            0.857143  0.857823
(1101, 0000)     13.652174    1.422278            0.739130  0.739830
(1101, 0001)     22.307692  189.098650            1.000000  0.999998
(1101, 0010)     16.000000    1.740402            0.800000  0.800627
(1101, 0011)     14.200000    2.718720            0.900000  0.900165
(1101, 0100)      4.132450    0.953158            0.602649  0.601592
(1101, 0101)      1.612069    0.728738            0.508621  0.508660
(1101, 0110)     10.850000    2.667245            0.900000  0.899825
(1101, 1000)     11.307692    2.224815            0.865385  0.865250
(1101, 1001)      7.333333    1.968077            0.833333  0.832848
(1101, 1010)      4.233333    1.954407            0.833333  0.833260
(1101, 1100)      2.740260    0.973540            0.610390  0.609315
(1101, 1110)      2.181818    1.384623            0.727273  0.727790
mae_retweet_probability: 0.0005940323337540636
mae_mean_retweets: 5.131673221124097
mape_retweet_probability: 0.0016884360317184499
mape_mean_retweets: 0.7922179367890062
wmape_retweet_probability: 0.0012548131820786118
wmape_mean_retweets: 1.032244394045555
runtime: 80.79488277435303
Total Time Elapsed: 103.35089588165283
