mpi_size: 384
mpi_vendor: ('MPICH', (3, 4, 2))
Assuming METIS style ids.
readtime: 1.447096347808838
args: Namespace(runid='2021-09-05T23:38:28.099499', graph='../../propagation-master/data/anon_graph_outer_fpoe_20201110.npz', metis_zero_based=False, tweets='../../propagation-master/data/sim_features_fpoe_20201110.csv', stats=None, params=None, discounts=None, corrs=None, source_map=None, indir='../../propagation-master/data', outdir='outdata', features=1, sources=400, samples=1000, epsilon=0.001, max_depth=None, max_nodes=None, sample_split=1, seed=7, command='val', topic='fpoe_20201110')
seed: 7
topic: fpoe_20201110
setuptime: 13.799916744232178
132 features, 400 sources, 1000 samples
             mean_retweets             retweet_probability          
                      real         sim                real       sim
(0000, 0000)      2.244048    0.364438            0.285714  0.286140
(0000, 0001)      1.753846    0.458852            0.338462  0.339543
(0000, 0010)      4.030303    0.341170            0.272727  0.273175
(0000, 0011)      7.238095    0.766763            0.476190  0.476245
(0000, 0100)      0.773879    0.129167            0.118908  0.118435
(0000, 0110)      1.196203    0.381515            0.297468  0.296400
(0000, 1000)      2.501763    0.424548            0.321974  0.322635
(0000, 1001)      4.377273    0.560833            0.395455  0.396093
(0000, 1010)      1.600000    0.430450            0.325581  0.325375
(0000, 1011)      4.326531    0.738413            0.469388  0.469125
(0000, 1100)      0.917647    0.273035            0.227451  0.227070
(0000, 1101)      3.466667    1.162217            0.600000  0.599955
(0000, 1110)      0.816901    0.268678            0.225352  0.224067
(0001, 0000)      6.167155    0.605740            0.425220  0.424970
(0001, 0001)     12.505376    1.154678            0.623656  0.624055
(0001, 0010)      8.379310    0.516252            0.379310  0.379365
(0001, 0011)      7.862069    1.921282            0.758621  0.758910
(0001, 0100)      1.268935    0.253220            0.216246  0.216477
(0001, 0101)      5.967033    0.884425            0.538462  0.538983
(0001, 0110)      3.266055    0.598350            0.422018  0.422052
(0001, 0111)      4.636364    1.224017            0.636364  0.636480
(0001, 1000)      5.209115    0.714492            0.471850  0.472282
(0001, 1001)      7.167347    1.333500            0.661224  0.662598
(0001, 1010)      3.535519    0.707697            0.469945  0.470065
(0001, 1011)      6.676768    1.370727            0.666667  0.666350
(0001, 1100)      4.282443    0.754865            0.488550  0.488000
(0001, 1101)      6.291667    0.950500            0.558333  0.557695
(0001, 1110)      4.120000    0.837878            0.520000  0.519532
(0001, 1111)      3.470588    1.465877            0.686275  0.685290
(0010, 0000)      2.439294    0.304680            0.247241  0.247473
(0010, 0001)      4.290323    0.490662            0.354839  0.354692
(0010, 0010)      2.230769    0.473135            0.346154  0.345787
(0010, 0011)      1.714286    0.493568            0.357143  0.356772
(0010, 0100)      1.125418    0.251902            0.212375  0.210978
(0010, 0101)      0.588235    0.286000            0.235294  0.234808
(0010, 0110)      0.878136    0.216518            0.186380  0.186213
(0010, 1000)      1.795539    0.374352            0.289963  0.289538
(0010, 1001)      2.017751    0.413612            0.313609  0.313740
(0010, 1010)      1.921260    0.383245            0.295276  0.295187
(0010, 1011)      2.102564    0.958003            0.538462  0.539558
(0010, 1100)      1.355372    0.473545            0.347107  0.345725
(0010, 1101)      1.833333    0.841050            0.500000  0.500988
(0010, 1110)      1.025000    0.306863            0.250000  0.248720
(0011, 0000)      7.330709    0.588223            0.409449  0.409425
(0011, 0001)     11.951220    1.173500            0.609756  0.609357
(0011, 0010)     11.809524    1.195620            0.619048  0.621112
(0011, 0011)     13.571429    1.283875            0.642857  0.641880
(0011, 0100)      2.746753    0.593118            0.415584  0.415943
(0011, 0101)      1.270270    0.254038            0.216216  0.215765
(0011, 0110)      3.592593    1.414027            0.666667  0.667430
(0011, 1000)      3.523810    0.554425            0.395238  0.394410
(0011, 1001)      9.083333    1.355240            0.652778  0.652295
(0011, 1010)      1.514706    0.325793            0.264706  0.264230
(0011, 1011)      9.033333    0.903487            0.533333  0.534060
(0011, 1100)      2.131148    0.544303            0.387978  0.389590
(0011, 1101)     16.645161    0.943395            0.548387  0.548607
(0011, 1110)      3.516129    0.757038            0.483871  0.483545
(0011, 1111)      2.272727    2.833212            0.818182  0.817827
(0100, 0000)      1.681633    0.577688            0.408163  0.407565
(0100, 0001)      0.820000    0.318132            0.260000  0.260795
(0100, 0010)      2.956522    0.255453            0.217391  0.217163
(0100, 0100)      1.092593    0.237552            0.203704  0.204552
(0100, 0101)      5.333333    0.329055            0.266667  0.267055
(0100, 0110)      0.341270    0.208045            0.182540  0.182277
(0100, 1000)      2.506173    0.768958            0.488889  0.489022
(0100, 1001)     10.946667    0.592765            0.413333  0.412925
(0100, 1010)      0.857143    0.357353            0.285714  0.286075
(0100, 1011)      6.320000    0.752973            0.480000  0.479125
(0100, 1100)      2.019704    0.758883            0.487685  0.487047
(0100, 1101)      1.300000    0.232530            0.200000  0.200555
(0100, 1110)      1.600000    0.500680            0.366667  0.368153
(0101, 0000)      3.853801    0.626315            0.444444  0.445400
(0101, 0001)      5.025641    0.988953            0.589744  0.589795
(0101, 0010)     13.909091    0.990393            0.590909  0.590535
(0101, 0100)      1.149556    0.360310            0.294043  0.294158
(0101, 0101)      0.540000    0.227318            0.200000  0.199780
(0101, 0110)      0.607143    0.262918            0.226190  0.225790
(0101, 1000)      1.839806    0.607155            0.436893  0.435530
(0101, 1001)      1.928571    1.010870            0.595238  0.595120
(0101, 1010)      0.600000    0.261842            0.225000  0.224965
(0101, 1011)      2.375000    1.097638            0.625000  0.624348
(0101, 1100)      0.422449    0.106165            0.100000  0.099823
(0101, 1101)      0.678571    0.466110            0.357143  0.358808
(0101, 1110)      1.559140    0.233270            0.204301  0.204275
(0110, 0000)      1.888158    0.427165            0.322368  0.321783
(0110, 0001)      7.120482    1.630917            0.686747  0.685755
(0110, 0010)      1.448276    0.543375            0.379310  0.378697
(0110, 0011)      6.400000    2.080130            0.742857  0.743725
(0110, 0100)      0.805211    0.187673            0.163772  0.164355
(0110, 0101)      1.225806    0.556098            0.387097  0.386515
(0110, 0110)      1.335570    0.394040            0.302013  0.300755
(0110, 1000)      3.314516    0.682148            0.443548  0.443315
(0110, 1001)      2.409091    0.742970            0.463636  0.464647
(0110, 1010)      1.876923    0.855250            0.507692  0.507845
(0110, 1011)      7.833333    1.435065            0.645833  0.646130
(0110, 1100)      2.207207    0.648860            0.423423  0.423550
(0110, 1110)      1.052632    0.463860            0.342105  0.342290
(0111, 0000)      2.380000    0.519445            0.380000  0.379240
(0111, 0001)      2.400000    0.704470            0.466667  0.467212
(0111, 0100)      0.852941    0.093753            0.088235  0.088240
(0111, 0101)      0.049536    0.018943            0.018576  0.018675
(0111, 0110)      0.500000    0.087798            0.083333  0.083037
(0111, 0111)      0.000000    0.000000            0.000000  0.000000
(0111, 1000)      2.585366    0.637497            0.439024  0.438093
(0111, 1001)      1.000000    0.780197            0.500000  0.498025
(0111, 1100)      3.760000    0.411420            0.320000  0.319990
(0111, 1110)      0.904762    0.217308            0.190476  0.189663
(1000, 1000)     20.214286    2.179573            0.785714  0.785285
(1001, 0000)     19.178082    3.054755            0.890411  0.890470
(1001, 0001)     20.923077    4.319175            0.923077  0.923345
(1001, 0010)     20.230769    4.195540            0.923077  0.922212
(1001, 0100)     10.890244    1.960492            0.804878  0.803667
(1001, 0110)      8.692308    3.003697            0.884615  0.884715
(1001, 1000)     12.382353    1.894128            0.794118  0.793532
(1001, 1001)      5.580000    0.786417            0.520000  0.520317
(1001, 1010)     13.722222    6.515985            0.944444  0.944540
(1001, 1011)      8.391304    1.541107            0.739130  0.739250
(1001, 1100)     10.536585    1.522270            0.731707  0.731865
(1001, 1101)      2.909091    3.478582            0.909091  0.909762
(1001, 1110)     15.047619    2.491563            0.857143  0.857908
(1101, 0000)     13.652174    1.431058            0.739130  0.740598
(1101, 0001)     22.307692  168.589738            1.000000  1.000000
(1101, 0010)     16.000000    1.726288            0.800000  0.799852
(1101, 0011)     14.200000    2.781725            0.900000  0.899868
(1101, 0100)      4.132450    0.953140            0.602649  0.600937
(1101, 0101)      1.612069    0.731178            0.508621  0.508918
(1101, 0110)     10.850000    2.785380            0.900000  0.899805
(1101, 1000)     11.307692    2.259615            0.865385  0.864660
(1101, 1001)      7.333333    1.957477            0.833333  0.833517
(1101, 1010)      4.233333    1.967875            0.833333  0.833143
(1101, 1100)      2.740260    0.983580            0.610390  0.610320
(1101, 1110)      2.181818    1.370350            0.727273  0.728312
mae_retweet_probability: 0.0005369813694267697
mae_mean_retweets: 4.975280702184701
mape_retweet_probability: 0.0014381996574411894
mape_mean_retweets: 0.784688763201017
wmape_retweet_probability: 0.0011343007149612519
wmape_mean_retweets: 1.000785785129984
runtime: 118.58012318611145
Total Time Elapsed: 133.83576273918152
