mpi_size: 1536
mpi_vendor: ('MPICH', (3, 4, 2))
Assuming METIS style ids.
readtime: 0.5854830741882324
args: Namespace(runid='2021-09-05T23:52:30.593538', graph='../../propagation-master/data/anon_graph_outer_neos_20201110.npz', metis_zero_based=False, tweets='../../propagation-master/data/sim_features_neos_20201110.csv', stats=None, params=None, discounts=None, corrs=None, source_map=None, indir='../../propagation-master/data', outdir='outdata', features=1, sources=400, samples=1000, epsilon=0.001, max_depth=None, max_nodes=None, sample_split=1, seed=8, command='val', topic='neos_20201110')
seed: 8
topic: neos_20201110
setuptime: 8.806604385375977
91 features, 400 sources, 1000 samples
             mean_retweets             retweet_probability          
                      real         sim                real       sim
(0000, 0000)      3.378378    0.335655            0.270270  0.269833
(0000, 0010)      1.913043    0.355850            0.282609  0.282830
(0000, 0011)      1.148148    0.584165            0.407407  0.407447
(0000, 0100)      1.153846    0.125718            0.115385  0.115420
(0000, 0110)      3.739130    0.929880            0.543478  0.543767
(0000, 1000)      2.429530    0.410220            0.315436  0.315897
(0000, 1001)      1.037037    0.587133            0.407407  0.407600
(0000, 1010)      1.389513    0.409687            0.314607  0.315387
(0000, 1011)      4.553571    0.855273            0.517857  0.518020
(0000, 1100)      1.142857    0.399380            0.309524  0.309890
(0000, 1110)      2.416667    0.766937            0.483333  0.483320
(0001, 0000)      7.205128    0.800687            0.512821  0.513130
(0001, 0001)     12.583333    1.343780            0.666667  0.667343
(0001, 0010)      7.185714    0.501342            0.371429  0.372140
(0001, 0011)      8.914286    0.821590            0.514286  0.515290
(0001, 0100)      1.704545    0.267495            0.227273  0.226972
(0001, 0101)      8.850000    3.961118            0.900000  0.899333
(0001, 0110)      7.135135    1.056672            0.594595  0.593840
(0001, 1000)      6.554140    0.985275            0.573248  0.573522
(0001, 1001)     14.954545    2.102230            0.787879  0.787502
(0001, 1010)      2.492386    0.626067            0.436548  0.436123
(0001, 1011)      4.734940    1.273360            0.650602  0.649685
(0001, 1100)      4.914286    0.643615            0.442857  0.443263
(0001, 1101)      4.016949    0.894935            0.542373  0.541990
(0001, 1110)      3.811594    0.954352            0.565217  0.564895
(0001, 1111)      2.032258    0.815395            0.516129  0.516583
(0010, 0000)      1.680000    0.769235            0.480000  0.479240
(0010, 0010)      1.064000    0.257515            0.216000  0.215820
(0010, 0011)      2.071429    0.728352            0.464286  0.463702
(0010, 0100)      0.318182    0.274485            0.227273  0.227440
(0010, 0110)      1.333333    0.627015            0.424242  0.423830
(0010, 1000)      1.289474    0.261722            0.219298  0.218915
(0010, 1001)      0.318182    0.211010            0.181818  0.182610
(0010, 1010)      2.173134    0.584773            0.400000  0.399013
(0010, 1011)      1.581818    0.751283            0.472727  0.473573
(0010, 1100)      0.437500    0.246895            0.208333  0.208657
(0010, 1110)      1.378378    0.715665            0.459459  0.459182
(0011, 0000)     19.333333    0.441670            0.333333  0.334700
(0011, 0010)      4.520000    0.568958            0.400000  0.399655
(0011, 0011)     10.800000    0.894502            0.533333  0.532140
(0011, 0100)      1.322581    0.365627            0.290323  0.289798
(0011, 0110)      4.000000    0.798040            0.500000  0.500570
(0011, 1000)      5.250000    0.482278            0.357143  0.357218
(0011, 1001)      7.642857    0.158015            0.142857  0.142003
(0011, 1010)      1.226415    0.486845            0.358491  0.360382
(0011, 1011)      4.000000    0.871243            0.523810  0.524275
(0011, 1100)      1.045455    0.412370            0.318182  0.317740
(0011, 1110)      1.545455    1.272310            0.636364  0.636750
(0100, 0000)      3.700000    1.283160            0.650000  0.650153
(0100, 0001)      0.300000    0.107703            0.100000  0.100405
(0100, 0010)      2.153846    0.329692            0.269231  0.269022
(0100, 0100)      0.142857    0.074800            0.071429  0.071280
(0100, 1000)      2.619048    1.324985            0.654762  0.654065
(0100, 1010)      1.471698    0.411917            0.320755  0.320452
(0100, 1011)      3.230769    0.692148            0.461538  0.462225
(0100, 1100)      1.636364    0.680687            0.454545  0.453425
(0100, 1110)      0.363636    0.096650            0.090909  0.090637
(0101, 0010)      4.625000    0.422083            0.333333  0.333385
(0101, 0100)      0.697674    0.338125            0.279070  0.278440
(0101, 1000)      2.333333    0.742480            0.500000  0.498470
(0101, 1010)      2.727273    0.596735            0.431818  0.431925
(0101, 1011)      5.700000    1.403877            0.700000  0.700885
(0101, 1100)      0.379310    0.072055            0.068966  0.069040
(0110, 0000)      0.454545    0.209308            0.181818  0.181882
(0110, 0010)      1.280000    0.569055            0.400000  0.400362
(0110, 0011)      2.666667    1.062195            0.583333  0.583125
(0110, 0100)      1.227273    0.151445            0.136364  0.136835
(0110, 0110)      1.227273    0.925633            0.545455  0.545190
(0110, 1000)      1.777778    0.672338            0.444444  0.445675
(0110, 1001)      1.615385    0.701912            0.461538  0.460233
(0110, 1010)      2.031746    0.662915            0.444444  0.442747
(0110, 1011)      1.684211    0.616205            0.421053  0.421035
(0110, 1100)      1.142857    0.800855            0.500000  0.499633
(0110, 1110)      1.076923    0.538150            0.384615  0.384750
(0111, 0010)      1.300000    1.125900            0.600000  0.599180
(0111, 0101)      0.000000    0.000000            0.000000  0.000000
(0111, 1010)      8.411765    0.590183            0.411765  0.411380
(1001, 0011)      4.916667    1.503277            0.750000  0.749723
(1001, 1001)      1.818182    0.465662            0.363636  0.364462
(1001, 1010)      6.150000    2.762247            0.900000  0.899408
(1001, 1011)      5.888889    1.385973            0.722222  0.721803
(1001, 1110)      4.588235    3.987038            0.941176  0.941250
(1101, 0001)     11.900000  137.193990            1.000000  1.000000
(1101, 0010)      2.666667    2.800195            0.888889  0.888822
(1101, 0011)      8.333333    3.682717            0.928571  0.928760
(1101, 0100)      1.363636    0.203568            0.181818  0.182265
(1101, 0110)      5.000000    2.322392            0.857143  0.856695
(1101, 0111)      8.833333  123.493502            1.000000  0.999998
(1101, 1010)      4.383117    6.617970            0.961039  0.961175
(1101, 1011)      5.898305    4.890383            0.949153  0.948837
(1101, 1100)      1.090909    0.835202            0.545455  0.546268
mae_retweet_probability: 0.0004836577078066888
mae_mean_retweets: 5.130122480032158
mape_retweet_probability: 0.0013182918155409435
mape_mean_retweets: 0.9016854069163901
wmape_retweet_probability: 0.001040325772348509
wmape_mean_retweets: 1.4296993461362226
runtime: 17.872745513916016
Total Time Elapsed: 27.314924001693726
