mpi_size: 96
mpi_vendor: ('MPICH', (3, 4, 2))
Assuming METIS style ids.
readtime: 0.5859177112579346
args: Namespace(runid='2021-09-03T14:35:04.453276', graph='../../propagation-master/data/anon_graph_outer_neos_20201110.npz', metis_zero_based=False, tweets='../../propagation-master/data/sim_features_neos_20201110.csv', stats=None, params=None, discounts=None, corrs=None, source_map=None, indir='../../propagation-master/data', outdir='outdata', features=1, sources=400, samples=1000, epsilon=0.001, max_depth=None, max_nodes=None, sample_split=1, seed=4, command='val', topic='neos_20201110')
seed: 4
topic: neos_20201110
setuptime: 4.6570751667022705
91 features, 400 sources, 1000 samples
             mean_retweets             retweet_probability          
                      real         sim                real       sim
(0000, 0000)      3.378378    0.337440            0.270270  0.270905
(0000, 0010)      1.913043    0.354450            0.282609  0.282675
(0000, 0011)      1.148148    0.587440            0.407407  0.407527
(0000, 0100)      1.153846    0.124887            0.115385  0.114707
(0000, 0110)      3.739130    0.938165            0.543478  0.543638
(0000, 1000)      2.429530    0.410388            0.315436  0.314960
(0000, 1001)      1.037037    0.583900            0.407407  0.408683
(0000, 1010)      1.389513    0.408485            0.314607  0.316280
(0000, 1011)      4.553571    0.861230            0.517857  0.517620
(0000, 1100)      1.142857    0.398850            0.309524  0.309200
(0000, 1110)      2.416667    0.768150            0.483333  0.483697
(0001, 0000)      7.205128    0.803895            0.512821  0.512315
(0001, 0001)     12.583333    1.348278            0.666667  0.666057
(0001, 0010)      7.185714    0.498758            0.371429  0.371530
(0001, 0011)      8.914286    0.814160            0.514286  0.514428
(0001, 0100)      1.704545    0.268895            0.227273  0.228585
(0001, 0101)      8.850000    4.167648            0.900000  0.899412
(0001, 0110)      7.135135    1.045823            0.594595  0.594357
(0001, 1000)      6.554140    0.980655            0.573248  0.574270
(0001, 1001)     14.954545    2.076965            0.787879  0.787325
(0001, 1010)      2.492386    0.624097            0.436548  0.434550
(0001, 1011)      4.734940    1.277248            0.650602  0.650215
(0001, 1100)      4.914286    0.640260            0.442857  0.442040
(0001, 1101)      4.016949    0.896160            0.542373  0.543637
(0001, 1110)      3.811594    0.961590            0.565217  0.566588
(0001, 1111)      2.032258    0.811627            0.516129  0.516983
(0010, 0000)      1.680000    0.768558            0.480000  0.479212
(0010, 0010)      1.064000    0.257198            0.216000  0.216522
(0010, 0011)      2.071429    0.731953            0.464286  0.465090
(0010, 0100)      0.318182    0.273425            0.227273  0.227410
(0010, 0110)      1.333333    0.634748            0.424242  0.424995
(0010, 1000)      1.289474    0.264125            0.219298  0.219808
(0010, 1001)      0.318182    0.212017            0.181818  0.182670
(0010, 1010)      2.173134    0.577370            0.400000  0.400345
(0010, 1011)      1.581818    0.748705            0.472727  0.473363
(0010, 1100)      0.437500    0.246210            0.208333  0.208640
(0010, 1110)      1.378378    0.717718            0.459459  0.460490
(0011, 0000)     19.333333    0.434605            0.333333  0.331128
(0011, 0010)      4.520000    0.570768            0.400000  0.400788
(0011, 0011)     10.800000    0.904378            0.533333  0.533615
(0011, 0100)      1.322581    0.366780            0.290323  0.290225
(0011, 0110)      4.000000    0.800825            0.500000  0.500280
(0011, 1000)      5.250000    0.483388            0.357143  0.357035
(0011, 1001)      7.642857    0.158845            0.142857  0.142765
(0011, 1010)      1.226415    0.487742            0.358491  0.359937
(0011, 1011)      4.000000    0.872150            0.523810  0.524197
(0011, 1100)      1.045455    0.413520            0.318182  0.317827
(0011, 1110)      1.545455    1.261047            0.636364  0.636130
(0100, 0000)      3.700000    1.295108            0.650000  0.650258
(0100, 0001)      0.300000    0.106905            0.100000  0.099585
(0100, 0010)      2.153846    0.330937            0.269231  0.268405
(0100, 0100)      0.142857    0.075447            0.071429  0.071932
(0100, 1000)      2.619048    1.314645            0.654762  0.655583
(0100, 1010)      1.471698    0.414862            0.320755  0.321023
(0100, 1011)      3.230769    0.691375            0.461538  0.461100
(0100, 1100)      1.636364    0.674628            0.454545  0.453907
(0100, 1110)      0.363636    0.097127            0.090909  0.091325
(0101, 0010)      4.625000    0.422840            0.333333  0.332240
(0101, 0100)      0.697674    0.340473            0.279070  0.280575
(0101, 1000)      2.333333    0.751153            0.500000  0.501748
(0101, 1010)      2.727273    0.600765            0.431818  0.431993
(0101, 1011)      5.700000    1.390285            0.700000  0.700403
(0101, 1100)      0.379310    0.071577            0.068966  0.068650
(0110, 0000)      0.454545    0.207880            0.181818  0.180617
(0110, 0010)      1.280000    0.572845            0.400000  0.399838
(0110, 0011)      2.666667    1.063260            0.583333  0.583070
(0110, 0100)      1.227273    0.150498            0.136364  0.135883
(0110, 0110)      1.227273    0.946877            0.545455  0.546475
(0110, 1000)      1.777778    0.666825            0.444444  0.444200
(0110, 1001)      1.615385    0.705252            0.461538  0.460448
(0110, 1010)      2.031746    0.667850            0.444444  0.443858
(0110, 1011)      1.684211    0.608413            0.421053  0.418740
(0110, 1100)      1.142857    0.804550            0.500000  0.499693
(0110, 1110)      1.076923    0.539438            0.384615  0.385240
(0111, 0010)      1.300000    1.108343            0.600000  0.599980
(0111, 0101)      0.000000    0.000000            0.000000  0.000000
(0111, 1010)      8.411765    0.592163            0.411765  0.413195
(1001, 0011)      4.916667    1.517942            0.750000  0.750633
(1001, 1001)      1.818182    0.461425            0.363636  0.363120
(1001, 1010)      6.150000    2.780330            0.900000  0.900420
(1001, 1011)      5.888889    1.393580            0.722222  0.722312
(1001, 1110)      4.588235    3.950442            0.941176  0.940975
(1101, 0001)     11.900000  126.762035            1.000000  0.999998
(1101, 0010)      2.666667    2.755720            0.888889  0.888837
(1101, 0011)      8.333333    3.725888            0.928571  0.928973
(1101, 0100)      1.363636    0.204017            0.181818  0.182298
(1101, 0110)      5.000000    2.371398            0.857143  0.857090
(1101, 0111)      8.833333  116.522903            1.000000  0.999995
(1101, 1010)      4.383117    6.181775            0.961039  0.961163
(1101, 1011)      5.898305    4.944475            0.949153  0.949412
(1101, 1100)      1.090909    0.837855            0.545455  0.544928
mae_retweet_probability: 0.0005940272694088402
mae_mean_retweets: 4.929802232779411
mape_retweet_probability: 0.0018014203492619323
mape_mean_retweets: 0.8812542415055533
wmape_retweet_probability: 0.0012777256887857276
wmape_mean_retweets: 1.373872662147714
runtime: 59.0819616317749
Total Time Elapsed: 64.32982444763184
