mpi_size: 48
mpi_vendor: ('MPICH', (3, 4, 2))
Assuming METIS style ids.
readtime: 0.6027688980102539
args: Namespace(runid='2021-09-07T14:02:36.948939', graph='../../propagation-master/data/anon_graph_outer_neos_20201110.npz', metis_zero_based=False, tweets='../../propagation-master/data/sim_features_neos_20201110.csv', stats=None, params=None, discounts=None, corrs=None, source_map=None, indir='../../propagation-master/data', outdir='outdata', features=1, sources=400, samples=1000, epsilon=0.001, max_depth=None, max_nodes=None, sample_split=1, seed=10, command='val', topic='neos_20201110')
seed: 10
topic: neos_20201110
setuptime: 1.8189656734466553
91 features, 400 sources, 1000 samples
             mean_retweets             retweet_probability          
                      real         sim                real       sim
(0000, 0000)      3.378378    0.335400            0.270270  0.269867
(0000, 0010)      1.913043    0.356448            0.282609  0.283440
(0000, 0011)      1.148148    0.583593            0.407407  0.407007
(0000, 0100)      1.153846    0.127185            0.115385  0.116197
(0000, 0110)      3.739130    0.941103            0.543478  0.544495
(0000, 1000)      2.429530    0.409290            0.315436  0.315165
(0000, 1001)      1.037037    0.578132            0.407407  0.407725
(0000, 1010)      1.389513    0.409990            0.314607  0.315285
(0000, 1011)      4.553571    0.851248            0.517857  0.517948
(0000, 1100)      1.142857    0.400095            0.309524  0.308948
(0000, 1110)      2.416667    0.760345            0.483333  0.484190
(0001, 0000)      7.205128    0.806177            0.512821  0.511937
(0001, 0001)     12.583333    1.335503            0.666667  0.666930
(0001, 0010)      7.185714    0.498900            0.371429  0.370735
(0001, 0011)      8.914286    0.822318            0.514286  0.514775
(0001, 0100)      1.704545    0.267008            0.227273  0.227082
(0001, 0101)      8.850000    4.158975            0.900000  0.900517
(0001, 0110)      7.135135    1.060672            0.594595  0.596580
(0001, 1000)      6.554140    0.984420            0.573248  0.570935
(0001, 1001)     14.954545    2.152582            0.787879  0.787045
(0001, 1010)      2.492386    0.631035            0.436548  0.435918
(0001, 1011)      4.734940    1.275218            0.650602  0.650203
(0001, 1100)      4.914286    0.641702            0.442857  0.443645
(0001, 1101)      4.016949    0.888923            0.542373  0.540687
(0001, 1110)      3.811594    0.952460            0.565217  0.565142
(0001, 1111)      2.032258    0.813565            0.516129  0.515892
(0010, 0000)      1.680000    0.773550            0.480000  0.480328
(0010, 0010)      1.064000    0.255747            0.216000  0.214603
(0010, 0011)      2.071429    0.731912            0.464286  0.465825
(0010, 0100)      0.318182    0.274638            0.227273  0.228193
(0010, 0110)      1.333333    0.635035            0.424242  0.424395
(0010, 1000)      1.289474    0.264280            0.219298  0.219998
(0010, 1001)      0.318182    0.211473            0.181818  0.182652
(0010, 1010)      2.173134    0.583640            0.400000  0.400247
(0010, 1011)      1.581818    0.750700            0.472727  0.471810
(0010, 1100)      0.437500    0.245963            0.208333  0.207830
(0010, 1110)      1.378378    0.716637            0.459459  0.459620
(0011, 0000)     19.333333    0.439085            0.333333  0.333755
(0011, 0010)      4.520000    0.569870            0.400000  0.400222
(0011, 0011)     10.800000    0.899042            0.533333  0.533800
(0011, 0100)      1.322581    0.367038            0.290323  0.290803
(0011, 0110)      4.000000    0.798270            0.500000  0.500690
(0011, 1000)      5.250000    0.485435            0.357143  0.358180
(0011, 1001)      7.642857    0.158190            0.142857  0.142605
(0011, 1010)      1.226415    0.483120            0.358491  0.358315
(0011, 1011)      4.000000    0.865908            0.523810  0.524018
(0011, 1100)      1.045455    0.414845            0.318182  0.318995
(0011, 1110)      1.545455    1.259413            0.636364  0.635025
(0100, 0000)      3.700000    1.294137            0.650000  0.649617
(0100, 0001)      0.300000    0.106985            0.100000  0.099780
(0100, 0010)      2.153846    0.330118            0.269231  0.268678
(0100, 0100)      0.142857    0.075442            0.071429  0.071798
(0100, 1000)      2.619048    1.296535            0.654762  0.653603
(0100, 1010)      1.471698    0.414483            0.320755  0.321447
(0100, 1011)      3.230769    0.694543            0.461538  0.462263
(0100, 1100)      1.636364    0.678440            0.454545  0.455507
(0100, 1110)      0.363636    0.096560            0.090909  0.090665
(0101, 0010)      4.625000    0.423635            0.333333  0.333195
(0101, 0100)      0.697674    0.339900            0.279070  0.280323
(0101, 1000)      2.333333    0.752088            0.500000  0.500888
(0101, 1010)      2.727273    0.603407            0.431818  0.433322
(0101, 1011)      5.700000    1.406243            0.700000  0.699260
(0101, 1100)      0.379310    0.071910            0.068966  0.068990
(0110, 0000)      0.454545    0.207080            0.181818  0.180255
(0110, 0010)      1.280000    0.571527            0.400000  0.400210
(0110, 0011)      2.666667    1.069365            0.583333  0.584587
(0110, 0100)      1.227273    0.151413            0.136364  0.136570
(0110, 0110)      1.227273    0.934820            0.545455  0.544888
(0110, 1000)      1.777778    0.666930            0.444444  0.443860
(0110, 1001)      1.615385    0.709470            0.461538  0.461525
(0110, 1010)      2.031746    0.670095            0.444444  0.443082
(0110, 1011)      1.684211    0.610645            0.421053  0.420113
(0110, 1100)      1.142857    0.802945            0.500000  0.501328
(0110, 1110)      1.076923    0.535420            0.384615  0.385795
(0111, 0010)      1.300000    1.136707            0.600000  0.601137
(0111, 0101)      0.000000    0.000000            0.000000  0.000000
(0111, 1010)      8.411765    0.596128            0.411765  0.411957
(1001, 0011)      4.916667    1.515120            0.750000  0.749912
(1001, 1001)      1.818182    0.460932            0.363636  0.363443
(1001, 1010)      6.150000    2.798410            0.900000  0.900023
(1001, 1011)      5.888889    1.377883            0.722222  0.721432
(1001, 1110)      4.588235    4.022712            0.941176  0.940925
(1101, 0001)     11.900000  133.264430            1.000000  0.999998
(1101, 0010)      2.666667    2.828710            0.888889  0.888665
(1101, 0011)      8.333333    3.629280            0.928571  0.928118
(1101, 0100)      1.363636    0.203302            0.181818  0.181965
(1101, 0110)      5.000000    2.346215            0.857143  0.856655
(1101, 0111)      8.833333  115.221083            1.000000  0.999988
(1101, 1010)      4.383117    6.037760            0.961039  0.960673
(1101, 1011)      5.898305    4.983697            0.949153  0.948667
(1101, 1100)      1.090909    0.831830            0.545455  0.544680
mae_retweet_probability: 0.0006234536800552424
mae_mean_retweets: 4.9854320129991905
mape_retweet_probability: 0.0017232016284291884
mape_mean_retweets: 0.8855453092475442
wmape_retweet_probability: 0.001341020562182842
wmape_mean_retweets: 1.3893759684947824
runtime: 113.27846884727478
Total Time Elapsed: 115.70498704910278
