mpi_size: 48
mpi_vendor: ('MPICH', (3, 4, 2))
Assuming METIS style ids.
readtime: 1.0900352001190186
args: Namespace(runid='2021-09-07T14:02:34.120195', graph='../../propagation-master/data/anon_graph_outer_neos_20201110.npz', metis_zero_based=False, tweets='../../propagation-master/data/sim_features_neos_20201110.csv', stats=None, params=None, discounts=None, corrs=None, source_map=None, indir='../../propagation-master/data', outdir='outdata', features=1, sources=400, samples=1000, epsilon=0.001, max_depth=None, max_nodes=None, sample_split=1, seed=3, command='val', topic='neos_20201110')
seed: 3
topic: neos_20201110
setuptime: 1.3306005001068115
91 features, 400 sources, 1000 samples
             mean_retweets             retweet_probability          
                      real         sim                real       sim
(0000, 0000)      3.378378    0.336737            0.270270  0.270547
(0000, 0010)      1.913043    0.355378            0.282609  0.282077
(0000, 0011)      1.148148    0.585595            0.407407  0.407230
(0000, 0100)      1.153846    0.125272            0.115385  0.115303
(0000, 0110)      3.739130    0.941522            0.543478  0.543810
(0000, 1000)      2.429530    0.408350            0.315436  0.313982
(0000, 1001)      1.037037    0.589970            0.407407  0.407675
(0000, 1010)      1.389513    0.409585            0.314607  0.314763
(0000, 1011)      4.553571    0.857670            0.517857  0.517362
(0000, 1100)      1.142857    0.402520            0.309524  0.311433
(0000, 1110)      2.416667    0.763733            0.483333  0.482605
(0001, 0000)      7.205128    0.806902            0.512821  0.513215
(0001, 0001)     12.583333    1.339885            0.666667  0.665960
(0001, 0010)      7.185714    0.496635            0.371429  0.370572
(0001, 0011)      8.914286    0.814543            0.514286  0.514510
(0001, 0100)      1.704545    0.266588            0.227273  0.226403
(0001, 0101)      8.850000    4.149485            0.900000  0.900563
(0001, 0110)      7.135135    1.044412            0.594595  0.594803
(0001, 1000)      6.554140    0.973530            0.573248  0.572750
(0001, 1001)     14.954545    2.106968            0.787879  0.788375
(0001, 1010)      2.492386    0.627850            0.436548  0.437867
(0001, 1011)      4.734940    1.260223            0.650602  0.651037
(0001, 1100)      4.914286    0.647340            0.442857  0.444952
(0001, 1101)      4.016949    0.888145            0.542373  0.542070
(0001, 1110)      3.811594    0.960532            0.565217  0.566205
(0001, 1111)      2.032258    0.817025            0.516129  0.515282
(0010, 0000)      1.680000    0.772468            0.480000  0.480323
(0010, 0010)      1.064000    0.257478            0.216000  0.216028
(0010, 0011)      2.071429    0.719120            0.464286  0.462900
(0010, 0100)      0.318182    0.273388            0.227273  0.227060
(0010, 0110)      1.333333    0.631252            0.424242  0.424680
(0010, 1000)      1.289474    0.263672            0.219298  0.219528
(0010, 1001)      0.318182    0.210215            0.181818  0.181905
(0010, 1010)      2.173134    0.582560            0.400000  0.400272
(0010, 1011)      1.581818    0.752257            0.472727  0.472490
(0010, 1100)      0.437500    0.248643            0.208333  0.208783
(0010, 1110)      1.378378    0.722323            0.459459  0.458893
(0011, 0000)     19.333333    0.440935            0.333333  0.335035
(0011, 0010)      4.520000    0.568015            0.400000  0.400823
(0011, 0011)     10.800000    0.896848            0.533333  0.533903
(0011, 0100)      1.322581    0.367308            0.290323  0.290457
(0011, 0110)      4.000000    0.809920            0.500000  0.500297
(0011, 1000)      5.250000    0.481895            0.357143  0.354892
(0011, 1001)      7.642857    0.158315            0.142857  0.142868
(0011, 1010)      1.226415    0.488637            0.358491  0.359090
(0011, 1011)      4.000000    0.867550            0.523810  0.524247
(0011, 1100)      1.045455    0.414255            0.318182  0.319203
(0011, 1110)      1.545455    1.268535            0.636364  0.636825
(0100, 0000)      3.700000    1.286650            0.650000  0.650010
(0100, 0001)      0.300000    0.107345            0.100000  0.100210
(0100, 0010)      2.153846    0.330790            0.269231  0.269395
(0100, 0100)      0.142857    0.074417            0.071429  0.071157
(0100, 1000)      2.619048    1.320325            0.654762  0.654348
(0100, 1010)      1.471698    0.412380            0.320755  0.320765
(0100, 1011)      3.230769    0.690702            0.461538  0.460810
(0100, 1100)      1.636364    0.673492            0.454545  0.453555
(0100, 1110)      0.363636    0.097345            0.090909  0.091332
(0101, 0010)      4.625000    0.421843            0.333333  0.333328
(0101, 0100)      0.697674    0.337157            0.279070  0.278683
(0101, 1000)      2.333333    0.741940            0.500000  0.499885
(0101, 1010)      2.727273    0.596770            0.431818  0.431317
(0101, 1011)      5.700000    1.401870            0.700000  0.699727
(0101, 1100)      0.379310    0.072155            0.068966  0.069235
(0110, 0000)      0.454545    0.208663            0.181818  0.181672
(0110, 0010)      1.280000    0.575348            0.400000  0.402058
(0110, 0011)      2.666667    1.079348            0.583333  0.584257
(0110, 0100)      1.227273    0.152030            0.136364  0.137020
(0110, 0110)      1.227273    0.958285            0.545455  0.545722
(0110, 1000)      1.777778    0.663192            0.444444  0.444098
(0110, 1001)      1.615385    0.705205            0.461538  0.461650
(0110, 1010)      2.031746    0.666370            0.444444  0.443252
(0110, 1011)      1.684211    0.612150            0.421053  0.420500
(0110, 1100)      1.142857    0.803012            0.500000  0.501155
(0110, 1110)      1.076923    0.546878            0.384615  0.384630
(0111, 0010)      1.300000    1.128605            0.600000  0.599850
(0111, 0101)      0.000000    0.000000            0.000000  0.000000
(0111, 1010)      8.411765    0.589955            0.411765  0.410502
(1001, 0011)      4.916667    1.519765            0.750000  0.749935
(1001, 1001)      1.818182    0.461165            0.363636  0.362638
(1001, 1010)      6.150000    2.794740            0.900000  0.899068
(1001, 1011)      5.888889    1.383817            0.722222  0.721487
(1001, 1110)      4.588235    4.016740            0.941176  0.941440
(1101, 0001)     11.900000  128.958352            1.000000  1.000000
(1101, 0010)      2.666667    2.736895            0.888889  0.888007
(1101, 0011)      8.333333    3.611638            0.928571  0.928470
(1101, 0100)      1.363636    0.203723            0.181818  0.182010
(1101, 0110)      5.000000    2.297557            0.857143  0.856822
(1101, 0111)      8.833333  117.730478            1.000000  0.999993
(1101, 1010)      4.383117    6.270168            0.961039  0.961175
(1101, 1011)      5.898305    5.169268            0.949153  0.949112
(1101, 1100)      1.090909    0.830025            0.545455  0.545418
mae_retweet_probability: 0.0005281948354645916
mae_mean_retweets: 4.966439650361828
mape_retweet_probability: 0.0014489395898214111
mape_mean_retweets: 0.8843704912711962
wmape_retweet_probability: 0.001136123112039435
wmape_mean_retweets: 1.3840830405871336
runtime: 115.65280222892761
Total Time Elapsed: 118.07838582992554
