mpi_size: 48
mpi_vendor: ('MPICH', (3, 4, 2))
Assuming METIS style ids.
readtime: 1.2540225982666016
args: Namespace(runid='2021-09-07T14:02:33.957862', graph='../../propagation-master/data/anon_graph_outer_neos_20201110.npz', metis_zero_based=False, tweets='../../propagation-master/data/sim_features_neos_20201110.csv', stats=None, params=None, discounts=None, corrs=None, source_map=None, indir='../../propagation-master/data', outdir='outdata', features=1, sources=400, samples=1000, epsilon=0.001, max_depth=None, max_nodes=None, sample_split=1, seed=7, command='val', topic='neos_20201110')
seed: 7
topic: neos_20201110
setuptime: 1.0353927612304688
91 features, 400 sources, 1000 samples
             mean_retweets             retweet_probability          
                      real         sim                real       sim
(0000, 0000)      3.378378    0.333168            0.270270  0.269213
(0000, 0010)      1.913043    0.354560            0.282609  0.281580
(0000, 0011)      1.148148    0.589275            0.407407  0.407708
(0000, 0100)      1.153846    0.125058            0.115385  0.114995
(0000, 0110)      3.739130    0.931503            0.543478  0.542225
(0000, 1000)      2.429530    0.408430            0.315436  0.315340
(0000, 1001)      1.037037    0.585600            0.407407  0.406537
(0000, 1010)      1.389513    0.411153            0.314607  0.315035
(0000, 1011)      4.553571    0.860952            0.517857  0.516058
(0000, 1100)      1.142857    0.400345            0.309524  0.308808
(0000, 1110)      2.416667    0.767730            0.483333  0.484228
(0001, 0000)      7.205128    0.807060            0.512821  0.512640
(0001, 0001)     12.583333    1.347708            0.666667  0.665447
(0001, 0010)      7.185714    0.500557            0.371429  0.372242
(0001, 0011)      8.914286    0.813497            0.514286  0.514912
(0001, 0100)      1.704545    0.267585            0.227273  0.226683
(0001, 0101)      8.850000    4.114738            0.900000  0.899593
(0001, 0110)      7.135135    1.042570            0.594595  0.593610
(0001, 1000)      6.554140    0.979410            0.573248  0.572675
(0001, 1001)     14.954545    2.129260            0.787879  0.786830
(0001, 1010)      2.492386    0.631453            0.436548  0.436447
(0001, 1011)      4.734940    1.269357            0.650602  0.650393
(0001, 1100)      4.914286    0.644033            0.442857  0.443450
(0001, 1101)      4.016949    0.892160            0.542373  0.542878
(0001, 1110)      3.811594    0.958035            0.565217  0.565142
(0001, 1111)      2.032258    0.821830            0.516129  0.516803
(0010, 0000)      1.680000    0.759980            0.480000  0.480430
(0010, 0010)      1.064000    0.255520            0.216000  0.214925
(0010, 0011)      2.071429    0.725600            0.464286  0.463413
(0010, 0100)      0.318182    0.273820            0.227273  0.227492
(0010, 0110)      1.333333    0.630915            0.424242  0.423123
(0010, 1000)      1.289474    0.263548            0.219298  0.220003
(0010, 1001)      0.318182    0.211945            0.181818  0.183552
(0010, 1010)      2.173134    0.571792            0.400000  0.399850
(0010, 1011)      1.581818    0.748525            0.472727  0.472805
(0010, 1100)      0.437500    0.246448            0.208333  0.208183
(0010, 1110)      1.378378    0.714033            0.459459  0.460533
(0011, 0000)     19.333333    0.436185            0.333333  0.332112
(0011, 0010)      4.520000    0.568960            0.400000  0.399687
(0011, 0011)     10.800000    0.893697            0.533333  0.533930
(0011, 0100)      1.322581    0.366225            0.290323  0.289483
(0011, 0110)      4.000000    0.805160            0.500000  0.499330
(0011, 1000)      5.250000    0.485397            0.357143  0.358095
(0011, 1001)      7.642857    0.158302            0.142857  0.142552
(0011, 1010)      1.226415    0.484662            0.358491  0.358967
(0011, 1011)      4.000000    0.873290            0.523810  0.522730
(0011, 1100)      1.045455    0.413957            0.318182  0.318540
(0011, 1110)      1.545455    1.281280            0.636364  0.637235
(0100, 0000)      3.700000    1.293550            0.650000  0.649975
(0100, 0001)      0.300000    0.107125            0.100000  0.099995
(0100, 0010)      2.153846    0.330512            0.269231  0.269265
(0100, 0100)      0.142857    0.074842            0.071429  0.071330
(0100, 1000)      2.619048    1.312502            0.654762  0.655435
(0100, 1010)      1.471698    0.413358            0.320755  0.320267
(0100, 1011)      3.230769    0.686755            0.461538  0.461240
(0100, 1100)      1.636364    0.678727            0.454545  0.455763
(0100, 1110)      0.363636    0.096728            0.090909  0.090972
(0101, 0010)      4.625000    0.420370            0.333333  0.332665
(0101, 0100)      0.697674    0.339112            0.279070  0.279778
(0101, 1000)      2.333333    0.746865            0.500000  0.501150
(0101, 1010)      2.727273    0.598233            0.431818  0.430818
(0101, 1011)      5.700000    1.408327            0.700000  0.700418
(0101, 1100)      0.379310    0.072415            0.068966  0.069447
(0110, 0000)      0.454545    0.210087            0.181818  0.182400
(0110, 0010)      1.280000    0.569555            0.400000  0.399927
(0110, 0011)      2.666667    1.058833            0.583333  0.583580
(0110, 0100)      1.227273    0.150040            0.136364  0.135625
(0110, 0110)      1.227273    0.946522            0.545455  0.546730
(0110, 1000)      1.777778    0.661928            0.444444  0.443680
(0110, 1001)      1.615385    0.709347            0.461538  0.462487
(0110, 1010)      2.031746    0.660947            0.444444  0.443943
(0110, 1011)      1.684211    0.613630            0.421053  0.421105
(0110, 1100)      1.142857    0.813872            0.500000  0.499848
(0110, 1110)      1.076923    0.538395            0.384615  0.384895
(0111, 0010)      1.300000    1.115043            0.600000  0.600847
(0111, 0101)      0.000000    0.000000            0.000000  0.000000
(0111, 1010)      8.411765    0.595515            0.411765  0.411928
(1001, 0011)      4.916667    1.516800            0.750000  0.750648
(1001, 1001)      1.818182    0.462602            0.363636  0.363035
(1001, 1010)      6.150000    2.830023            0.900000  0.899325
(1001, 1011)      5.888889    1.387215            0.722222  0.721805
(1001, 1110)      4.588235    3.888055            0.941176  0.941345
(1101, 0001)     11.900000  136.073305            1.000000  1.000000
(1101, 0010)      2.666667    2.792368            0.888889  0.888705
(1101, 0011)      8.333333    3.840955            0.928571  0.928235
(1101, 0100)      1.363636    0.204123            0.181818  0.182515
(1101, 0110)      5.000000    2.364040            0.857143  0.857480
(1101, 0111)      8.833333  127.057208            1.000000  0.999995
(1101, 1010)      4.383117    6.384115            0.961039  0.961375
(1101, 1011)      5.898305    4.827860            0.949153  0.948473
(1101, 1100)      1.090909    0.829263            0.545455  0.545620
mae_retweet_probability: 0.0005706622686966969
mae_mean_retweets: 5.151004540471718
mape_retweet_probability: 0.001611356569500496
mape_mean_retweets: 0.9040490726825519
wmape_retweet_probability: 0.0012274686329806763
wmape_mean_retweets: 1.4355189085877278
runtime: 112.89439964294434
Total Time Elapsed: 115.18838429450989
