mpi_size: 2048
mpi_vendor: ('MPICH', (3, 4, 2))
args: Namespace(runid='1364880.hawk-pbs5', graph='../../propagation/data/anon_graph_outer_socialdistance_20201110.npz', metis_zero_based=False, tweets='../../propagation/data/sim_features_covid19_socialdistance_20201110.csv', stats=None, params=None, discount='../../propagation/data/discount-covid.csv', corr='../../propagation/data/corr-covid.csv', source_map=None, indir='../../propagation/data', outdir='outdata', features=1, sources=5000, samples=10000, epsilon=0.001, max_depth=None, max_nodes=None, sample_split=1, seed=42, command='val', topic='covid19_socialdistance_20201110')
Assuming METIS style ids.
readtime: 7.830172061920166
seed: 42
setuptime: 3.8469996452331543
217 features, 5000 sources, 10000 samples
             mean_retweets             retweet_probability          
                      real         sim                real       sim
(0000, 0000)      1.111283    1.152968            0.157813  0.157753
(0000, 0001)      1.226562    1.254397            0.203125  0.203168
(0000, 0010)      0.706215    0.694698            0.112994  0.113016
(0000, 0011)      2.046512    2.011247            0.372093  0.372112
(0000, 0100)      0.861856    0.848009            0.172371  0.172347
(0000, 0101)      0.788462    0.820816            0.307692  0.307606
(0000, 0110)      0.573729    0.561174            0.162712  0.162654
(0000, 0111)      1.384615    1.355319            0.615385  0.615440
(0000, 1000)      1.951773    1.940589            0.233745  0.233826
(0000, 1001)      2.347391    2.320962            0.303913  0.304029
(0000, 1010)      1.698830    1.648362            0.245614  0.245519
(0000, 1011)      2.784946    2.592652            0.367742  0.367745
(0000, 1100)      1.050648    1.063934            0.273852  0.273770
(0000, 1101)      3.225664    3.238237            0.424779  0.424815
(0000, 1110)      1.336311    1.315182            0.301851  0.301863
(0000, 1111)      2.000000    2.007656            0.360544  0.360640
(0001, 0000)      8.273815    8.500301            0.250374  0.250351
(0001, 0001)      2.832990    2.738649            0.358763  0.358832
(0001, 0010)      3.747368    3.586141            0.268421  0.268454
(0001, 0011)      6.364706    6.296740            0.494118  0.494105
(0001, 0100)      2.087195    1.998967            0.305488  0.305586
(0001, 0101)      3.348189    3.339686            0.479109  0.479117
(0001, 0110)      2.414373    2.364911            0.352446  0.352432
(0001, 0111)      2.281690    2.257061            0.492958  0.492958
(0001, 1000)      2.748870    2.713841            0.271652  0.271638
(0001, 1001)      5.287586    5.299674            0.406813  0.406741
(0001, 1010)      4.103354    4.302047            0.330009  0.329968
(0001, 1011)      5.685542    5.890260            0.515663  0.515680
(0001, 1100)      2.116854    2.021611            0.386120  0.386090
(0001, 1101)      4.940127    5.170783            0.550955  0.550907
(0001, 1110)      2.146862    2.017901            0.439976  0.440081
(0001, 1111)      3.425703    3.424070            0.602410  0.602343
(0010, 0000)      1.841174    1.892057            0.168074  0.168085
(0010, 0001)      1.420824    1.417209            0.247289  0.247358
(0010, 0010)      0.902527    0.872158            0.169675  0.169692
(0010, 0011)      1.037736    1.017266            0.207547  0.207517
(0010, 0100)      0.634705    0.589458            0.163902  0.163849
(0010, 0101)      1.050847    1.066308            0.406780  0.406750
(0010, 0110)      0.368978    0.370698            0.123384  0.123342
(0010, 1000)      1.648505    1.550272            0.176109  0.176079
(0010, 1001)      3.201889    3.208547            0.282172  0.282150
(0010, 1010)      0.962833    0.957887            0.190743  0.190756
(0010, 1011)      2.799618    2.650554            0.370229  0.370292
(0010, 1100)      1.332907    1.302493            0.230794  0.230812
(0010, 1101)      1.810811    1.793277            0.342342  0.342354
(0010, 1110)      1.102986    1.069916            0.249848  0.249907
(0010, 1111)      4.463415    4.281209            0.475610  0.475578
(0011, 0000)      5.068116    5.088482            0.215942  0.216042
(0011, 0001)      1.442529    1.405808            0.333333  0.333390
(0011, 0010)      1.494845    1.574750            0.257732  0.257674
(0011, 0011)      3.903226    3.947934            0.419355  0.419415
(0011, 0100)      1.568627    1.619028            0.237358  0.237447
(0011, 0101)      1.549383    1.598904            0.345679  0.345663
(0011, 0110)      2.134443    2.254282            0.284251  0.284237
(0011, 0111)      3.066667    3.288908            0.600000  0.599977
(0011, 1000)      3.884913    3.877728            0.287515  0.287611
(0011, 1001)      3.249821    3.272792            0.413744  0.413736
(0011, 1010)      3.890947    3.925567            0.376543  0.376574
(0011, 1011)      4.862613    4.683444            0.590090  0.590143
(0011, 1100)      2.703481    2.596216            0.375750  0.375843
(0011, 1101)      3.843230    3.795142            0.570071  0.569917
(0011, 1110)      2.227821    2.249138            0.464159  0.464176
(0011, 1111)      9.850000    8.865499            0.700000  0.699968
(0100, 0000)      3.123962    3.014503            0.265718  0.265765
(0100, 0001)      7.387845    7.283944            0.317127  0.317040
(0100, 0010)      0.809689    0.809207            0.256055  0.256093
(0100, 0011)      0.851064    0.851426            0.361702  0.361623
(0100, 0100)      0.856786    0.881520            0.245135  0.245134
(0100, 0101)      0.653226    0.635057            0.266129  0.265960
(0100, 0110)      0.501787    0.499269            0.183512  0.183539
(0100, 0111)      0.642857    0.654680            0.380952  0.380835
(0100, 1000)      2.352580    2.372959            0.316205  0.316254
(0100, 1001)      3.188902    3.087151            0.409681  0.409765
(0100, 1010)      0.912020    0.925567            0.260223  0.260297
(0100, 1011)      2.564433    2.544328            0.373711  0.373706
(0100, 1100)      1.782879    1.841477            0.356503  0.356573
(0100, 1101)      1.972912    1.913285            0.381490  0.381377
(0100, 1110)      1.262295    1.268370            0.278220  0.278095
(0100, 1111)      2.853659    2.735161            0.495935  0.495918
(0101, 0000)      5.437400    5.369758            0.299197  0.299197
(0101, 0001)      2.103333    2.012675            0.365556  0.365653
(0101, 0010)      1.193651    1.226409            0.244444  0.244472
(0101, 0011)      9.461538    9.136631            0.435897  0.435930
(0101, 0100)      0.669263    0.699681            0.183198  0.183265
(0101, 0101)      0.484028    0.467450            0.183507  0.183500
(0101, 0110)      0.743528    0.734651            0.289320  0.289244
(0101, 0111)      2.793814    2.815595            0.536082  0.536147
(0101, 1000)      4.097510    4.196743            0.382397  0.382404
(0101, 1001)      4.589868    4.436883            0.462526  0.462537
(0101, 1010)      2.623568    2.543441            0.394435  0.394366
(0101, 1011)      6.992647    7.288046            0.542647  0.542537
(0101, 1100)      1.744206    1.741766            0.285074  0.285039
(0101, 1101)      1.052668    1.093961            0.258143  0.258090
(0101, 1110)      1.325918    1.271595            0.294229  0.294205
(0101, 1111)      0.601608    0.597872            0.128629  0.128594
(0110, 0000)      2.579486    2.585715            0.257719  0.257638
(0110, 0001)      4.517874    4.250720            0.397101  0.397237
(0110, 0010)      1.092308    1.081164            0.212308  0.212268
(0110, 0011)      3.380952    3.431537            0.261905  0.261835
(0110, 0100)      1.140851    1.122780            0.253283  0.253363
(0110, 0101)      0.203069    0.203891            0.046029  0.045990
(0110, 0110)      0.870195    0.880840            0.286319  0.286242
(0110, 0111)      1.406250    1.349709            0.281250  0.281204
(0110, 1000)      3.917626    3.835714            0.353353  0.353286
(0110, 1001)      4.219336    4.202771            0.490628  0.490706
(0110, 1010)      1.595517    1.659114            0.287524  0.287476
(0110, 1011)      3.677273    3.579851            0.370455  0.370459
(0110, 1100)      2.630902    2.623489            0.353098  0.353062
(0110, 1101)      2.654321    2.653646            0.444444  0.444373
(0110, 1110)      2.015339    2.058096            0.323107  0.323101
(0110, 1111)      1.548387    1.591256            0.483871  0.483923
(0111, 0000)      2.133219    1.777611            0.225448  0.225459
(0111, 0001)      4.145038    4.216858            0.374046  0.374012
(0111, 0010)      2.821918    2.495960            0.182648  0.182701
(0111, 0011)      0.411765    0.402869            0.176471  0.176476
(0111, 0100)      0.664268    0.632577            0.107836  0.107803
(0111, 0101)      0.483583    0.544994            0.103854  0.103842
(0111, 0110)      0.941611    0.940529            0.227642  0.227681
(0111, 0111)      0.040775    0.044793            0.026504  0.026483
(0111, 1000)      4.779623    4.723936            0.361132  0.361037
(0111, 1001)      5.652716    5.982409            0.472841  0.472900
(0111, 1010)      3.424658    3.213619            0.397260  0.397236
(0111, 1011)      4.854271    5.090901            0.557789  0.557786
(0111, 1100)      2.893653    2.810412            0.322661  0.322701
(0111, 1101)      2.758621    2.856807            0.431034  0.430989
(0111, 1110)      3.515254    3.637353            0.465254  0.465230
(0111, 1111)      4.721311    4.662707            0.639344  0.639480
(1000, 0100)     10.689655   10.936142            0.655172  0.655244
(1000, 0110)     13.954545   13.277314            0.363636  0.363687
(1000, 1000)      3.000000    3.126222            0.400000  0.400050
(1000, 1001)      3.297297    3.059465            0.432432  0.432469
(1000, 1011)     16.750000   16.624010            0.750000  0.749975
(1000, 1100)      3.605263    3.055522            0.631579  0.631575
(1000, 1101)      6.416667   13.002156            1.000000  0.999996
(1000, 1110)      9.282051    8.801704            0.794872  0.794780
(1001, 0000)     56.958678   54.317729            0.760331  0.760359
(1001, 0001)     46.200000   47.092852            0.784615  0.784590
(1001, 0010)     14.235294   15.738991            0.764706  0.764806
(1001, 0011)     42.586207   40.577771            0.827586  0.827600
(1001, 0100)     23.535135   22.172809            0.702703  0.702730
(1001, 0101)     30.577778   29.910679            0.777778  0.777780
(1001, 0110)      9.625000   10.560769            0.768750  0.768717
(1001, 0111)     11.440000   12.598513            0.880000  0.879938
(1001, 1000)     38.208333   35.276551            0.739130  0.739018
(1001, 1001)     37.702041   35.919749            0.838776  0.838835
(1001, 1010)      5.257426    5.509402            0.772277  0.772292
(1001, 1011)      0.154599    0.151168            0.011233  0.011231
(1001, 1100)     11.792740   12.232934            0.722482  0.722399
(1001, 1101)     26.891986   24.179494            0.857143  0.857163
(1001, 1110)      7.860738    7.798380            0.781879  0.781908
(1001, 1111)     16.641304   14.664984            0.858696  0.858620
(1010, 0000)     87.263158   82.309934            0.894737  0.894719
(1010, 0100)     11.200000   10.052608            0.800000  0.800001
(1010, 0110)     10.187500   10.106817            0.937500  0.937488
(1010, 1000)      3.354839    3.392769            0.677419  0.677495
(1010, 1001)      5.000000    4.473996            0.642857  0.642805
(1010, 1010)      3.739130    3.251448            0.847826  0.847813
(1010, 1011)      4.700000    4.583404            0.800000  0.799910
(1010, 1100)      2.391304    2.952543            0.608696  0.608705
(1010, 1110)      4.596774    3.866840            0.741935  0.741997
(1010, 1111)      4.600000   13.464007            1.000000  0.999996
(1011, 0000)     13.062500   11.984446            0.812500  0.812540
(1011, 0001)     15.411765   14.785207            0.705882  0.705860
(1011, 0100)      5.318182    5.264265            0.659091  0.658949
(1011, 0110)      4.039216    4.556609            0.784314  0.784397
(1011, 1000)     10.923077   10.460781            0.723077  0.723013
(1011, 1001)     15.161616   14.482806            0.787879  0.787912
(1011, 1010)      6.754717    7.187230            0.735849  0.735904
(1011, 1011)     65.232143   60.836895            0.821429  0.821467
(1011, 1100)      7.093923    7.092614            0.723757  0.723712
(1011, 1101)     23.125000   21.969762            0.906250  0.906227
(1011, 1110)      6.729508    6.156933            0.811475  0.811405
(1011, 1111)      8.485714    8.394047            0.742857  0.742895
(1100, 0000)     16.885246   17.262548            0.622951  0.622982
(1100, 0100)     11.219512   11.503175            0.853659  0.853524
(1100, 0110)     11.480000   13.624974            0.680000  0.680031
(1100, 1000)     21.512821   21.415062            0.833333  0.833320
(1100, 1001)     46.842105   51.840412            0.842105  0.842128
(1100, 1010)     14.661972   12.827074            0.901408  0.901396
(1100, 1011)     22.187500   24.151324            0.875000  0.875031
(1100, 1100)      8.662857    6.878064            0.834286  0.834303
(1100, 1101)      3.888889    5.161901            0.666667  0.666747
(1100, 1110)     10.576923    8.996570            0.915385  0.915355
(1100, 1111)     11.416667   10.792601            0.833333  0.833403
(1101, 0000)     33.593688   32.301453            0.727811  0.727847
(1101, 0001)     53.336957   50.066167            0.869565  0.869599
(1101, 0010)     10.677419   14.927862            0.725806  0.725749
(1101, 0011)     50.866667   50.731556            0.866667  0.866644
(1101, 0100)      6.424236    4.947885            0.629421  0.629485
(1101, 0101)      3.639378    3.632733            0.497745  0.497769
(1101, 0110)      6.846063    5.109087            0.662750  0.662811
(1101, 0111)      7.365854    7.814889            0.878049  0.878066
(1101, 1000)     19.901149   24.583497            0.749425  0.749422
(1101, 1001)     45.583333   41.072930            0.896135  0.896162
(1101, 1010)     24.127820   27.813365            0.827068  0.827086
(1101, 1011)     17.848485   17.747257            0.856749  0.856786
(1101, 1100)     12.652565   15.464381            0.772670  0.772727
(1101, 1101)     13.982161   16.114817            0.827552  0.827555
(1101, 1110)      9.556943    5.911320            0.749750  0.749776
(1101, 1111)      9.432225    6.616570            0.810742  0.810695
(1110, 0100)     31.309524   28.404972            0.952381  0.952381
(1110, 1000)     51.625000   39.546115            0.900000  0.899980
(1110, 1001)     52.160000   47.151373            0.880000  0.880028
(1110, 1100)     49.000000   47.843134            0.823529  0.823647
(1110, 1110)      6.500000    7.681398            0.666667  0.666738
(1111, 0000)     96.333333  102.426565            0.666667  0.666479
(1111, 0100)     19.096045   17.962844            0.742938  0.742891
(1111, 0101)      3.191011    3.516740            0.707865  0.707897
(1111, 0110)     14.696970   15.410982            0.545455  0.545274
(1111, 1000)    109.614286  111.795205            0.850000  0.850014
(1111, 1001)     34.953704   32.428134            0.842593  0.842609
(1111, 1010)     18.113636   15.934356            0.863636  0.863739
(1111, 1011)     11.727273   10.548946            0.863636  0.863647
(1111, 1100)     10.158784    9.331847            0.793919  0.793855
(1111, 1101)     33.272727   33.884008            0.878788  0.878790
(1111, 1110)     10.847619    8.639088            0.771429  0.771356
(1111, 1111)     16.692308   15.297834            0.961538  0.961569
mae_retweet_probability: 4.768318941639791e-05
mae_mean_retweets: 0.7617829706611076
mape_retweet_probability: 0.00012986332119558605
mape_mean_retweets: 0.06854148413203114
wmape_retweet_probability: 9.324919908230591e-05
wmape_mean_retweets: 0.07635287736388749
runtime: 2258.4544203281403
totaltime: 2270.14666056633
