mpi_size: 3072
mpi_vendor: ('MPICH', (3, 4, 2))
Assuming METIS style ids.
readtime: 2.412736415863037
args: Namespace(runid='2021-09-21T13:05:29.201975', graph='../../propagation-master/data/anon_graph_outer_fpoe_20201110.npz', metis_zero_based=False, tweets='../../propagation-master/data/sim_features_fpoe_20201110.csv', stats=None, params=None, discounts='../../propagation-master/data/discount-fpoe.csv', corrs='../../propagation-master/data/corr-fpoe.csv', source_map=None, indir='../../propagation-master/data', outdir='outdata', features=1, sources=5000, samples=10000, epsilon=0.001, max_depth=None, max_nodes=None, sample_split=1, seed=42, command='val', topic='fpoe_20201110')
seed: 42
topic: fpoe_20201110
setuptime: 21.31671643257141
132 features, 5000 sources, 10000 samples
             mean_retweets            retweet_probability          
                      real        sim                real       sim
(0000, 0000)      2.244048   2.298003            0.285714  0.285722
(0000, 0001)      1.753846   1.725144            0.338462  0.338395
(0000, 0010)      4.030303   4.148046            0.272727  0.272750
(0000, 0011)      7.238095   7.327555            0.476190  0.476191
(0000, 0100)      0.773879   0.752802            0.118908  0.118940
(0000, 0110)      1.196203   1.232070            0.297468  0.297494
(0000, 1000)      2.501763   2.463736            0.321974  0.322026
(0000, 1001)      4.377273   4.258555            0.395455  0.395552
(0000, 1010)      1.600000   1.619591            0.325581  0.325515
(0000, 1011)      4.326531   4.240645            0.469388  0.469420
(0000, 1100)      0.917647   0.931133            0.227451  0.227526
(0000, 1101)      3.466667   3.489779            0.600000  0.600110
(0000, 1110)      0.816901   0.863579            0.225352  0.225266
(0001, 0000)      6.167155   5.999940            0.425220  0.425095
(0001, 0001)     12.505376  11.417903            0.623656  0.623711
(0001, 0010)      8.379310   8.118123            0.379310  0.379376
(0001, 0011)      7.862069   7.676382            0.758621  0.758588
(0001, 0100)      1.268935   1.362485            0.216246  0.216147
(0001, 0101)      5.967033   5.574581            0.538462  0.538552
(0001, 0110)      3.266055   3.131292            0.422018  0.422060
(0001, 0111)      4.636364   4.489239            0.636364  0.636367
(0001, 1000)      5.209115   4.900881            0.471850  0.471843
(0001, 1001)      7.167347   7.286395            0.661224  0.661288
(0001, 1010)      3.535519   3.636176            0.469945  0.469921
(0001, 1011)      6.676768   6.769201            0.666667  0.666665
(0001, 1100)      4.282443   4.229906            0.488550  0.488648
(0001, 1101)      6.291667   6.122498            0.558333  0.558372
(0001, 1110)      4.120000   4.138232            0.520000  0.520054
(0001, 1111)      3.470588   3.294276            0.686275  0.686261
(0010, 0000)      2.439294   2.400867            0.247241  0.247190
(0010, 0001)      4.290323   4.227348            0.354839  0.354810
(0010, 0010)      2.230769   2.215325            0.346154  0.346162
(0010, 0011)      1.714286   1.734218            0.357143  0.357087
(0010, 0100)      1.125418   1.074218            0.212375  0.212419
(0010, 0101)      0.588235   0.609303            0.235294  0.235382
(0010, 0110)      0.878136   0.865978            0.186380  0.186285
(0010, 1000)      1.795539   1.853964            0.289963  0.289860
(0010, 1001)      2.017751   1.971315            0.313609  0.313660
(0010, 1010)      1.921260   1.913758            0.295276  0.295347
(0010, 1011)      2.102564   2.032878            0.538462  0.538520
(0010, 1100)      1.355372   1.373317            0.347107  0.347136
(0010, 1101)      1.833333   1.762032            0.500000  0.499950
(0010, 1110)      1.025000   1.007271            0.250000  0.249963
(0011, 0000)      7.330709   7.362801            0.409449  0.409376
(0011, 0001)     11.951220  11.205968            0.609756  0.609863
(0011, 0010)     11.809524  11.900867            0.619048  0.619083
(0011, 0011)     13.571429  12.897474            0.642857  0.642707
(0011, 0100)      2.746753   2.752154            0.415584  0.415504
(0011, 0101)      1.270270   1.211080            0.216216  0.216162
(0011, 0110)      3.592593   3.568007            0.666667  0.666739
(0011, 1000)      3.523810   3.472868            0.395238  0.395318
(0011, 1001)      9.083333   8.674633            0.652778  0.652743
(0011, 1010)      1.514706   1.487984            0.264706  0.264736
(0011, 1011)      9.033333   8.507631            0.533333  0.533351
(0011, 1100)      2.131148   2.085817            0.387978  0.388045
(0011, 1101)     16.645161  16.021186            0.548387  0.548521
(0011, 1110)      3.516129   3.498041            0.483871  0.483821
(0011, 1111)      2.272727   2.362820            0.818182  0.818234
(0100, 0000)      1.681633   1.708573            0.408163  0.408094
(0100, 0001)      0.820000   0.808428            0.260000  0.259998
(0100, 0010)      2.956522   3.056849            0.217391  0.217277
(0100, 0100)      1.092593   1.089739            0.203704  0.203657
(0100, 0101)      5.333333   5.181146            0.266667  0.266715
(0100, 0110)      0.341270   0.336331            0.182540  0.182426
(0100, 1000)      2.506173   2.472930            0.488889  0.488943
(0100, 1001)     10.946667  10.657183            0.413333  0.413448
(0100, 1010)      0.857143   0.843726            0.285714  0.285633
(0100, 1011)      6.320000   6.199612            0.480000  0.480093
(0100, 1100)      2.019704   2.051761            0.487685  0.487649
(0100, 1101)      1.300000   1.241788            0.200000  0.200013
(0100, 1110)      1.600000   1.692952            0.366667  0.366700
(0101, 0000)      3.853801   3.944357            0.444444  0.444517
(0101, 0001)      5.025641   4.961888            0.589744  0.589862
(0101, 0010)     13.909091  14.144257            0.590909  0.590832
(0101, 0100)      1.149556   1.205169            0.294043  0.294006
(0101, 0101)      0.540000   0.565835            0.200000  0.199973
(0101, 0110)      0.607143   0.673282            0.226190  0.226189
(0101, 1000)      1.839806   1.976020            0.436893  0.436939
(0101, 1001)      1.928571   1.869007            0.595238  0.595316
(0101, 1010)      0.600000   0.531967            0.225000  0.224989
(0101, 1011)      2.375000   2.385567            0.625000  0.624910
(0101, 1100)      0.422449   0.426903            0.100000  0.099986
(0101, 1101)      0.678571   0.728353            0.357143  0.357110
(0101, 1110)      1.559140   1.538109            0.204301  0.204391
(0110, 0000)      1.888158   1.888830            0.322368  0.322488
(0110, 0001)      7.120482   7.239813            0.686747  0.686586
(0110, 0010)      1.448276   1.409408            0.379310  0.379118
(0110, 0011)      6.400000   6.162070            0.742857  0.742951
(0110, 0100)      0.805211   0.827659            0.163772  0.163730
(0110, 0101)      1.225806   1.244205            0.387097  0.387014
(0110, 0110)      1.335570   1.342214            0.302013  0.302049
(0110, 1000)      3.314516   3.299261            0.443548  0.443461
(0110, 1001)      2.409091   2.434752            0.463636  0.463538
(0110, 1010)      1.876923   1.930062            0.507692  0.507672
(0110, 1011)      7.833333   7.481109            0.645833  0.645767
(0110, 1100)      2.207207   2.213776            0.423423  0.423469
(0110, 1110)      1.052632   1.073144            0.342105  0.342097
(0111, 0000)      2.380000   2.509857            0.380000  0.380086
(0111, 0001)      2.400000   2.575810            0.466667  0.466669
(0111, 0100)      0.852941   0.849362            0.088235  0.088273
(0111, 0101)      0.049536   0.049253            0.018576  0.018596
(0111, 0110)      0.500000   0.492173            0.083333  0.083243
(0111, 0111)      0.000000   0.000000            0.000000  0.000000
(0111, 1000)      2.585366   2.602279            0.439024  0.438975
(0111, 1001)      1.000000   0.914231            0.500000  0.500051
(0111, 1100)      3.760000   3.825084            0.320000  0.320002
(0111, 1110)      0.904762   0.948069            0.190476  0.190510
(1000, 1000)     20.214286  21.723091            0.785714  0.785673
(1001, 0000)     19.178082  19.704991            0.890411  0.890460
(1001, 0001)     20.923077  18.800459            0.923077  0.923089
(1001, 0010)     20.230769  18.243714            0.923077  0.923072
(1001, 0100)     10.890244  11.695468            0.804878  0.804872
(1001, 0110)      8.692308   7.734631            0.884615  0.884591
(1001, 1000)     12.382353  11.598255            0.794118  0.794091
(1001, 1001)      5.580000   6.535069            0.520000  0.520083
(1001, 1010)     13.722222  11.963635            0.944444  0.944457
(1001, 1011)      8.391304   7.550250            0.739130  0.739068
(1001, 1100)     10.536585   9.851979            0.731707  0.731736
(1001, 1101)      2.909091   4.377156            0.909091  0.909071
(1001, 1110)     15.047619  13.243649            0.857143  0.857194
(1101, 0000)     13.652174  10.405005            0.739130  0.739237
(1101, 0001)     22.307692  36.578838            1.000000  0.999996
(1101, 0010)     16.000000  11.189031            0.800000  0.799921
(1101, 0011)     14.200000  13.099828            0.900000  0.900065
(1101, 0100)      4.132450   8.076400            0.602649  0.602719
(1101, 0101)      1.612069   6.624895            0.508621  0.508651
(1101, 0110)     10.850000  13.564604            0.900000  0.899966
(1101, 1000)     11.307692  12.577036            0.865385  0.865417
(1101, 1001)      7.333333  12.503471            0.833333  0.833420
(1101, 1010)      4.233333  11.660286            0.833333  0.833390
(1101, 1100)      2.740260   8.386495            0.610390  0.610425
(1101, 1110)      2.181818  10.646969            0.727273  0.727329
mae_retweet_probability: 5.543629445982653e-05
mae_mean_retweets: 0.6869979527874459
mape_retweet_probability: 0.0001600442486430607
mape_mean_retweets: 0.14322707957037206
wmape_retweet_probability: 0.00011710169480872302
wmape_mean_retweets: 0.13819075278730908
runtime: 1755.3582241535187
Total Time Elapsed: 1779.1298139095306
